ply
format ascii 1.0
comment VCGLIB generated
element vertex 434
property float x
property float y
property float z
property float nx
property float ny
property float nz
element face 192
property list uchar int vertex_indices
end_header
-0.972483 -0.034155 -0.015512 0.003849001 -0.9999104 -0.012826 
0.476836 -0.047667 1.472768 0.003849001 -0.9999104 -0.012826 
-0.991983 -0.05307 1.453197 0.003849001 -0.9999104 -0.012826 
0.490683 1.440076 0.022901 0.9999045 0.003678002 0.01332401 
0.458249 4.780595 1.534703 0.9999045 0.003678002 0.01332401 
0.471182 1.421161 1.49161 0.9999045 0.003678002 0.01332401 
-0.997638 1.415758 1.472038 -0.9999045 -0.003679002 -0.01332301 
-0.972483 -0.034155 -0.015512 -0.9999045 -0.003679002 -0.01332301 
-0.991983 -0.05307 1.453197 -0.9999045 -0.003679002 -0.01332301 
-0.978136 1.434673 0.003329 0.013275 0.012876 -0.999829 
0.496337 -0.028752 0.00406 0.013275 0.012876 -0.999829 
-0.972483 -0.034155 -0.015512 0.013275 0.012876 -0.999829 
0.490683 1.440076 0.022901 0.9999045 0.003677998 0.01332399 
0.476836 -0.047667 1.472768 0.9999045 0.003677998 0.01332399 
0.496337 -0.028752 0.00406 0.9999045 0.003677998 0.01332399 
-0.991983 -0.05307 1.453197 -0.013275 -0.012876 0.999829 
0.471182 1.421161 1.49161 -0.013275 -0.012876 0.999829 
-0.997638 1.415758 1.472038 -0.013275 -0.012876 0.999829 
0.47775 4.79951 0.065995 0.9999045 0.003678002 0.01332401 
0.454508 5.752444 1.547169 0.9999045 0.003678002 0.01332401 
0.458249 4.780595 1.534703 0.9999045 0.003678002 0.01332401 
-0.997638 1.415758 1.472038 -0.013275 -0.012876 0.999829 
0.471182 1.421161 1.49161 -0.013275 -0.012876 0.999829 
-0.546217 3.152642 1.500399 -0.013275 -0.012876 0.999829 
0.490683 1.440076 0.022901 0.013275 0.012877 -0.999829 
-0.491775 3.232144 0.032937 0.013275 0.012877 -0.999829 
0.051057 3.241929 0.040271 0.013275 0.012877 -0.999829 
-0.997638 1.415758 1.472038 -0.9999045 -0.003678002 -0.01332401 
-0.991069 4.794106 0.046422 -0.9999045 -0.003678002 -0.01332401 
-0.978136 1.434673 0.003329 -0.9999045 -0.003678002 -0.01332401 
-0.023609 3.160755 3.151858 -0.013277 -0.012877 0.999829 
-0.573607 3.814018 3.152969 -0.013277 -0.012877 0.999829 
-0.568043 3.131471 3.144252 -0.013277 -0.012877 0.999829 
-0.551781 3.835189 1.509117 -0.013274 -0.012875 0.9998291 
-0.020752 3.844733 1.51629 -0.013274 -0.012875 0.9998291 
-1.01057 4.775191 1.515131 -0.013274 -0.012875 0.9998291 
-0.02077 3.163508 2.938042 0.05387499 -0.9984739 -0.012144 
-0.023609 3.160755 3.151858 0.05387499 -0.9984739 -0.012144 
-0.568043 3.131471 3.144252 0.05387499 -0.9984739 -0.012144 
-0.573607 3.814018 3.152969 -0.018139 0.9997557 0.012635 
-0.039476 3.826571 2.926539 -0.018139 0.9997557 0.012635 
-0.03729 3.828691 2.761886 -0.018139 0.9997557 0.012635 
-0.551781 3.835189 1.509117 -0.9998787 -0.007979998 -0.013379 
-0.568043 3.131471 3.144252 -0.9998787 -0.007979998 -0.013379 
-0.573607 3.814018 3.152969 -0.9998787 -0.007979998 -0.013379 
-0.001783 3.181925 1.508006 0.9995027 0.02843399 0.013637 
-0.03729 3.828691 2.761886 0.9995027 0.02843399 0.013637 
-0.018738 3.165479 2.785012 0.9995027 0.02843399 0.013637 
0.055679 3.944362 -1.598163 0.013277 0.012874 -0.999829 
-0.469907 3.253352 -1.61404 0.013277 0.012874 -0.999829 
-0.519021 3.972482 -1.605432 0.013277 0.012874 -0.999829 
0.47775 4.79951 0.065995 0.013276 0.012877 -0.999829 
-0.54089 3.951275 0.041545 0.013276 0.012877 -0.999829 
-0.991069 4.794106 0.046422 0.013276 0.012877 -0.999829 
0.051057 3.241929 0.040271 0.9995916 0.02513599 0.013596 
0.055679 3.944362 -1.598163 0.9995916 0.02513599 0.013596 
0.033811 3.923155 0.048814 0.9995916 0.02513599 0.013596 
-0.54089 3.951275 0.041545 -0.997588 -0.067963 -0.014121 
-0.469907 3.253352 -1.61404 -0.997588 -0.067963 -0.014121 
-0.491775 3.232144 0.032937 -0.997588 -0.067963 -0.014121 
0.051057 3.241929 0.040271 0.018191 -0.9997548 -0.012632 
-0.469907 3.253352 -1.61404 0.018191 -0.9997548 -0.012632 
0.072926 3.263136 -1.606706 0.018191 -0.9997548 -0.012632 
-0.54089 3.951275 0.041545 0.04869602 0.9987223 0.013507 
0.055679 3.944362 -1.598163 0.04869602 0.9987223 0.013507 
-0.519021 3.972482 -1.605432 0.04869602 0.9987223 0.013507 
-0.99481 5.765956 0.058889 0.013276 0.012876 -0.999829 
0.473223 5.975698 0.081082 0.013276 0.012876 -0.999829 
0.474009 5.771359 0.078461 0.013276 0.012876 -0.999829 
0.458249 4.780595 1.534703 -0.013275 -0.012876 0.999829 
-1.014311 5.747041 1.527597 -0.013275 -0.012876 0.999829 
-1.01057 4.775191 1.515131 -0.013275 -0.012876 0.999829 
0.474009 5.771359 0.078461 0.013276 0.012877 -0.999829 
-1.01057 4.775191 1.515131 -0.9999045 -0.003678002 -0.01332401 
-0.99481 5.765956 0.058889 -0.9999045 -0.003678002 -0.01332401 
-0.991069 4.794106 0.046422 -0.9999045 -0.003678002 -0.01332401 
0.473223 5.975698 0.081082 0.9999045 0.003677998 0.01332399 
0.448957 7.194568 1.565668 0.9999045 0.003677998 0.01332399 
0.453722 5.956783 1.549791 0.9999045 0.003677998 0.01332399 
-1.014311 5.747041 1.527597 0.003849001 -0.9999104 -0.012827 
-1.769296 5.763107 0.048569 0.003849001 -0.9999104 -0.012827 
-0.99481 5.765956 0.058889 0.003849001 -0.9999104 -0.012827 
0.473223 5.975698 0.081082 -0.013275 -0.012876 0.999829 
-1.770294 5.763103 0.048556 -0.013275 -0.012876 0.999829 
0.474009 5.771359 0.078461 -0.013275 -0.012876 0.999829 
0.454508 5.752444 1.547169 -0.013275 -0.012876 0.999829 
-1.015098 5.95138 1.530219 -0.013275 -0.012876 0.999829 
-1.014311 5.747041 1.527597 -0.013275 -0.012876 0.999829 
1.24005 5.774178 0.088669 0.9999045 0.003679002 0.01332401 
1.219763 5.959601 1.559998 0.9999045 0.003679002 0.01332401 
1.22055 5.755262 1.557377 0.9999045 0.003679002 0.01332401 
0.453722 5.956783 1.549791 -0.003849001 0.9999104 0.012827 
1.239264 5.978517 0.09129 -0.003849001 0.9999104 0.012827 
0.473223 5.975698 0.081082 -0.003849001 0.9999104 0.012827 
0.474009 5.771359 0.078461 0.003849001 -0.9999104 -0.012827 
1.22055 5.755262 1.557377 0.003849001 -0.9999104 -0.012827 
0.454508 5.752444 1.547169 0.003849001 -0.9999104 -0.012827 
1.219763 5.959601 1.559998 -0.003849001 0.9999104 0.012826 
0.444024 5.947377 2.280201 -0.003849001 0.9999104 0.012826 
1.21006 5.950191 2.290741 -0.003849001 0.9999104 0.012826 
0.484238 5.986382 -0.748529 0.013275 0.012876 -0.999829 
1.251066 5.784862 -0.740943 0.013275 0.012876 -0.999829 
0.485025 5.782043 -0.75115 0.013275 0.012876 -0.999829 
1.247955 5.986946 -0.563275 -0.003849001 0.9999104 0.012827 
0.481936 5.98415 -0.575137 -0.003849001 0.9999104 0.012827 
1.251066 5.784862 -0.740943 0.9999045 0.003678998 0.01332299 
1.250279 5.989201 -0.738321 0.9999045 0.003678998 0.01332299 
1.247955 5.986946 -0.563275 0.9999045 0.003678998 0.01332299 
0.474009 5.771359 0.078461 0.003849001 -0.9999104 -0.012826 
1.251066 5.784862 -0.740943 0.003849001 -0.9999104 -0.012826 
1.24005 5.774178 0.088669 0.003849001 -0.9999104 -0.012826 
0.442317 5.74062 2.465322 -0.013276 -0.012876 0.999829 
1.207572 5.947777 2.478151 -0.013276 -0.012876 0.999829 
0.441531 5.944959 2.467943 -0.013276 -0.012876 0.999829 
0.454508 5.752444 1.547169 0.003849001 -0.9999104 -0.012826 
1.208359 5.743438 2.47553 0.003849001 -0.9999104 -0.012826 
0.442317 5.74062 2.465322 0.003849001 -0.9999104 -0.012826 
1.219763 5.959601 1.559998 0.9999045 0.003678998 0.01332399 
1.21006 5.950191 2.290741 0.9999045 0.003678998 0.01332399 
1.22055 5.755262 1.557377 0.9999045 0.003678998 0.01332399 
0.441531 5.944959 2.467943 -0.013275 -0.012876 0.999829 
-1.79839 6.295243 2.442714 -0.013275 -0.012876 0.999829 
-1.79701 5.936724 2.438115 -0.013275 -0.012876 0.999829 
-1.771081 5.967443 0.051177 -0.9999045 -0.003679002 -0.01332401 
-1.762303 5.975956 -0.60989 -0.9999045 -0.003679002 -0.01332401 
-1.770294 5.763103 0.048556 -0.9999045 -0.003679002 -0.01332401 
-1.760066 5.978127 -0.778434 0.013275 0.012876 -0.999829 
-1.759279 5.773787 -0.781055 0.003849001 -0.9999104 -0.012826 
0.485025 5.782043 -0.75115 0.003849001 -0.9999104 -0.012826 
0.481936 5.98415 -0.575137 -0.003849001 0.9999104 0.012827 
-1.771081 5.967443 0.051177 -0.003849001 0.9999104 0.012827 
0.473223 5.975698 0.081082 -0.003849001 0.9999104 0.012827 
-1.796223 5.732385 2.435494 -0.9999045 -0.003679002 -0.01332401 
-1.79701 5.936724 2.438115 -0.9999045 -0.003679002 -0.01332401 
-1.794504 5.939155 2.249401 -0.9999045 -0.003679002 -0.01332401 
-1.796223 5.732385 2.435494 -0.013275 -0.012876 0.999829 
0.442317 5.74062 2.465322 -0.013275 -0.012876 0.999829 
0.442317 5.74062 2.465322 0.003849001 -0.9999104 -0.012826 
-1.784033 5.744209 1.517341 0.003849001 -0.9999104 -0.012826 
0.454508 5.752444 1.547169 0.003849001 -0.9999104 -0.012826 
0.454508 5.752444 1.547169 0.013275 0.012876 -0.999829 
-1.784819 5.948548 1.519962 0.013275 0.012876 -0.999829 
0.453722 5.956783 1.549791 0.013275 0.012876 -0.999829 
-1.788797 5.744192 1.517277 -0.9999045 -0.003677998 -0.01332399 
-1.770082 5.967446 0.05119 -0.9999045 -0.003677998 -0.01332399 
-1.769296 5.763107 0.048569 -0.9999045 -0.003677998 -0.01332399 
-1.015098 5.95138 1.530219 -0.013276 -0.012876 0.999829 
-1.788797 5.744192 1.517277 -0.013276 -0.012876 0.999829 
-1.014311 5.747041 1.527597 -0.013276 -0.012876 0.999829 
-1.770082 5.967446 0.05119 0.013276 0.012876 -0.999829 
-0.995597 5.970295 0.06151 0.013276 0.012876 -0.999829 
-1.015098 5.95138 1.530219 -0.003849001 0.9999104 0.012827 
-1.770082 5.967446 0.05119 -0.003849001 0.9999104 0.012827 
-1.789584 5.948531 1.519898 -0.003849001 0.9999104 0.012827 
0.448957 7.194568 1.565668 -0.003849001 0.9999104 0.012827 
-1.000362 7.208079 0.077388 -0.003849001 0.9999104 0.012827 
-1.019863 7.189164 1.546096 -0.003849001 0.9999104 0.012827 
-1.794504 5.939155 2.249401 0.013709 0.012878 -0.9998231 
0.442643 6.305897 2.2848 0.013709 0.012878 -0.9998231 
0.444024 5.947377 2.280201 0.013709 0.012878 -0.9998231 
-1.794504 5.939155 2.249401 -0.003849001 0.9999104 0.012826 
0.453722 5.956783 1.549791 -0.003849001 0.9999104 0.012826 
-1.784819 5.948548 1.519962 -0.003849001 0.9999104 0.012826 
1.247955 5.986946 -0.563275 -0.015435 -0.012884 0.9997979 
0.480383 6.387451 -0.569964 -0.015435 -0.012884 0.9997979 
0.481936 5.98415 -0.575137 -0.015435 -0.012884 0.9997979 
-1.762303 5.975956 -0.60989 -0.9999045 -0.003678002 -0.01332301 
-1.761618 6.381429 -0.773261 -0.9999045 -0.003678002 -0.01332301 
-1.760066 5.978127 -0.778434 -0.9999045 -0.003678002 -0.01332301 
0.453722 5.956783 1.549791 -0.013275 -0.012876 0.999829 
-1.019863 7.189164 1.546096 -0.013275 -0.012876 0.999829 
0.468458 7.213483 0.09696 0.013276 0.012876 -0.999829 
-1.015098 5.95138 1.530219 -0.9999045 -0.003678002 -0.01332401 
-1.000362 7.208079 0.077388 -0.9999045 -0.003678002 -0.01332401 
-0.995597 5.970295 0.06151 -0.9999045 -0.003678002 -0.01332401 
-1.763856 6.379258 -0.604717 -0.003849001 0.9999104 0.012826 
0.482685 6.389685 -0.743356 -0.003849001 0.9999104 0.012826 
-1.761618 6.381429 -0.773261 -0.003849001 0.9999104 0.012826 
0.480383 6.387451 -0.569964 -0.003849001 0.9999103 0.012829 
1.248727 6.392503 -0.733148 -0.003849001 0.9999103 0.012829 
0.482685 6.389685 -0.743356 -0.003849001 0.9999103 0.012829 
-1.760066 5.978127 -0.778434 0.013275 0.012876 -0.999829 
0.482685 6.389685 -0.743356 0.013275 0.012876 -0.999829 
0.484238 5.986382 -0.748529 0.013275 0.012876 -0.999829 
1.250279 5.989201 -0.738321 0.9999045 0.003678002 0.01332301 
1.246403 6.390248 -0.558102 0.9999045 0.003678002 0.01332301 
1.247955 5.986946 -0.563275 0.9999045 0.003678002 0.01332301 
0.481936 5.98415 -0.575137 -0.015435 -0.012884 0.9997979 
-1.763856 6.379258 -0.604717 -0.015435 -0.012884 0.9997979 
-1.762303 5.975956 -0.60989 -0.015435 -0.012884 0.9997979 
1.248727 6.392503 -0.733148 0.013275 0.012876 -0.999829 
1.250279 5.989201 -0.738321 0.013275 0.012876 -0.999829 
0.442643 6.305897 2.2848 -0.003849001 0.9999103 0.01283 
-1.79839 6.295243 2.442714 -0.003849001 0.9999103 0.01283 
0.440151 6.303478 2.472542 -0.003849001 0.9999103 0.01283 
1.20868 6.30871 2.29534 -0.003849001 0.9999104 0.012827 
0.440151 6.303478 2.472542 -0.003849001 0.9999104 0.012827 
1.206192 6.306296 2.48275 -0.003849001 0.9999104 0.012827 
1.21006 5.950191 2.290741 0.9999045 0.003677998 0.01332299 
1.206192 6.306296 2.48275 0.9999045 0.003677998 0.01332299 
1.207572 5.947777 2.478151 0.9999045 0.003677998 0.01332299 
0.444024 5.947377 2.280201 0.01371 0.012878 -0.9998231 
1.20868 6.30871 2.29534 0.01371 0.012878 -0.9998231 
1.21006 5.950191 2.290741 0.01371 0.012878 -0.9998231 
1.207572 5.947777 2.478151 -0.013276 -0.012876 0.999829 
0.440151 6.303478 2.472542 -0.013276 -0.012876 0.999829 
0.441531 5.944959 2.467943 -0.013276 -0.012876 0.999829 
-1.79701 5.936724 2.438115 -0.9999045 -0.003677998 -0.01332399 
-1.795885 6.297674 2.254 -0.9999045 -0.003677998 -0.01332399 
-1.794504 5.939155 2.249401 -0.9999045 -0.003677998 -0.01332399 
0.178121 3.17108 2.787697 0.9995027 0.02843499 0.013637 
0.157383 3.832171 2.929225 0.9995027 0.02843499 0.013637 
0.17609 3.169109 2.940728 0.9995027 0.02843499 0.013637 
-0.03729 3.828691 2.761886 0.014613 -0.034436 -0.9993001 
0.178121 3.17108 2.787697 0.014613 -0.034436 -0.9993001 
-0.018738 3.165479 2.785012 0.014613 -0.034436 -0.9993001 
-0.02077 3.163508 2.938042 0.9995027 0.02843399 0.013637 
-0.042578 3.823562 3.160141 0.9995027 0.02843399 0.013637 
-0.023609 3.160755 3.151858 0.9995027 0.02843399 0.013637 
-0.039476 3.826571 2.926539 -0.014122 0.016946 0.9997568 
0.17609 3.169109 2.940728 -0.014122 0.016946 0.9997568 
0.157383 3.832171 2.929225 -0.014122 0.016946 0.9997568 
-0.018738 3.165479 2.785012 0.02860599 -0.9995127 -0.012492 
0.17609 3.169109 2.940728 0.02860599 -0.9995127 -0.012492 
-0.02077 3.163508 2.938042 0.02860599 -0.9995127 -0.012492 
0.159569 3.834292 2.764572 0.02860499 -0.9995127 -0.012492 
1.428752 3.86834 2.946571 0.02860499 -0.9995127 -0.012492 
0.157383 3.832171 2.929225 0.02860499 -0.9995127 -0.012492 
-0.049197 4.166214 2.930784 -0.02860599 0.9995127 0.012492 
0.149849 4.173934 2.768817 -0.02860599 0.9995127 0.012492 
-0.04701 4.168334 2.766131 -0.02860599 0.9995127 0.012492 
0.157383 3.832171 2.929225 -0.013274 -0.012876 0.999829 
-0.049197 4.166214 2.930784 -0.013274 -0.012876 0.999829 
-0.039476 3.826571 2.926539 -0.013274 -0.012876 0.999829 
-0.039476 3.826571 2.926539 -0.9995027 -0.02843499 -0.013637 
-0.04701 4.168334 2.766131 -0.9995027 -0.02843499 -0.013637 
-0.03729 3.828691 2.761886 -0.9995027 -0.02843499 -0.013637 
0.159569 3.834292 2.764572 0.013275 0.012876 -0.999829 
-0.04701 4.168334 2.766131 0.013275 0.012876 -0.999829 
0.149849 4.173934 2.768817 0.013275 0.012876 -0.999829 
1.430938 3.870461 2.781918 0.9995027 0.02843499 0.013638 
1.419032 4.207983 2.950816 0.9995027 0.02843499 0.013638 
1.428752 3.86834 2.946571 0.9995027 0.02843499 0.013638 
0.147663 4.171814 2.93347 -0.02860499 0.9995127 0.012492 
1.421218 4.210103 2.786163 -0.02860499 0.9995127 0.012492 
0.149849 4.173934 2.768817 -0.02860499 0.9995127 0.012492 
1.430938 3.870461 2.781918 0.013275 0.012876 -0.999829 
0.157383 3.832171 2.929225 -0.013275 -0.012876 0.999829 
1.419032 4.207983 2.950816 -0.013275 -0.012876 0.999829 
0.147663 4.171814 2.93347 -0.013275 -0.012876 0.999829 
0.496337 -0.028752 0.00406 0.003849001 -0.9999104 -0.012826 
0.47775 4.79951 0.065995 0.9999045 0.003678002 0.01332401 
-0.972483 -0.034155 -0.015512 -0.9999045 -0.003678002 -0.01332401 
-0.978136 1.434673 0.003329 0.013276 0.012876 -0.999829 
0.490683 1.440076 0.022901 0.013276 0.012876 -0.999829 
0.496337 -0.028752 0.00406 0.013276 0.012876 -0.999829 
0.476836 -0.047667 1.472768 0.9999045 0.003678002 0.01332401 
0.476836 -0.047667 1.472768 -0.013275 -0.012876 0.999829 
0.474009 5.771359 0.078461 0.9999045 0.003678002 0.01332401 
0.471182 1.421161 1.49161 -0.013275 -0.012877 0.999829 
0.458249 4.780595 1.534703 -0.013275 -0.012877 0.999829 
-0.001783 3.181925 1.508006 -0.013275 -0.012877 0.999829 
-0.546217 3.152642 1.500399 -0.013279 -0.012878 0.999829 
-0.551781 3.835189 1.509117 -0.013279 -0.012878 0.999829 
-1.01057 4.775191 1.515131 -0.013279 -0.012878 0.999829 
0.471182 1.421161 1.49161 -0.013277 -0.012877 0.999829 
-0.001783 3.181925 1.508006 -0.013277 -0.012877 0.999829 
-0.546217 3.152642 1.500399 -0.013277 -0.012877 0.999829 
-0.546217 3.152642 1.500399 -0.013274 -0.012876 0.999829 
-1.01057 4.775191 1.515131 -0.013274 -0.012876 0.999829 
-0.997638 1.415758 1.472038 -0.013274 -0.012876 0.999829 
-0.978136 1.434673 0.003329 0.013278 0.012876 -0.999829 
-0.991069 4.794106 0.046422 0.013278 0.012876 -0.999829 
-0.491775 3.232144 0.032937 0.013278 0.012876 -0.999829 
-0.991069 4.794106 0.046422 0.013268 0.012873 -0.9998291 
-0.54089 3.951275 0.041545 0.013268 0.012873 -0.9998291 
-0.491775 3.232144 0.032937 0.013268 0.012873 -0.9998291 
0.051057 3.241929 0.040271 0.013273 0.012876 -0.9998291 
0.47775 4.79951 0.065995 0.013273 0.012876 -0.9998291 
0.490683 1.440076 0.022901 0.013273 0.012876 -0.9998291 
-0.978136 1.434673 0.003329 0.013276 0.012877 -0.999829 
-0.491775 3.232144 0.032937 0.013276 0.012877 -0.999829 
0.490683 1.440076 0.022901 0.013276 0.012877 -0.999829 
-1.01057 4.775191 1.515131 -0.9999045 -0.003678002 -0.01332401 
-0.023609 3.160755 3.151858 -0.013274 -0.012875 0.9998291 
-0.042578 3.823562 3.160141 -0.013274 -0.012875 0.9998291 
-0.573607 3.814018 3.152969 -0.013274 -0.012875 0.9998291 
0.458249 4.780595 1.534703 -0.013275 -0.012877 0.999829 
-1.01057 4.775191 1.515131 -0.013275 -0.012877 0.999829 
-0.020752 3.844733 1.51629 -0.013275 -0.012877 0.999829 
-0.020752 3.844733 1.51629 -0.013279 -0.012875 0.999829 
-0.001783 3.181925 1.508006 -0.013279 -0.012875 0.999829 
0.458249 4.780595 1.534703 -0.013279 -0.012875 0.999829 
-0.546217 3.152642 1.500399 0.05387499 -0.9984739 -0.012144 
-0.018738 3.165479 2.785012 0.05387499 -0.9984739 -0.012144 
-0.018738 3.165479 2.785012 0.05387499 -0.9984739 -0.012143 
-0.02077 3.163508 2.938042 0.05387499 -0.9984739 -0.012143 
-0.568043 3.131471 3.144252 0.05387499 -0.9984739 -0.012143 
-0.546217 3.152642 1.500399 0.05387499 -0.9984739 -0.012144 
-0.001783 3.181925 1.508006 0.05387499 -0.9984739 -0.012144 
-0.018738 3.165479 2.785012 0.05387499 -0.9984739 -0.012144 
-0.03729 3.828691 2.761886 -0.018139 0.9997557 0.012635 
-0.020752 3.844733 1.51629 -0.018139 0.9997557 0.012635 
-0.551781 3.835189 1.509117 -0.018139 0.9997557 0.012635 
-0.551781 3.835189 1.509117 -0.018138 0.9997557 0.012635 
-0.573607 3.814018 3.152969 -0.018138 0.9997557 0.012635 
-0.03729 3.828691 2.761886 -0.018138 0.9997557 0.012635 
-0.042578 3.823562 3.160141 -0.018138 0.9997557 0.012635 
-0.039476 3.826571 2.926539 -0.018138 0.9997557 0.012635 
-0.573607 3.814018 3.152969 -0.018138 0.9997557 0.012635 
-0.546217 3.152642 1.500399 -0.9998787 -0.007979998 -0.013379 
-0.020752 3.844733 1.51629 0.9995027 0.02843399 0.013637 
0.055679 3.944362 -1.598163 0.013275 0.012875 -0.999829 
0.072926 3.263136 -1.606706 0.013275 0.012875 -0.999829 
-0.469907 3.253352 -1.61404 0.013275 0.012875 -0.999829 
0.47775 4.79951 0.065995 0.013279 0.012875 -0.999829 
0.051057 3.241929 0.040271 0.013279 0.012875 -0.999829 
0.033811 3.923155 0.048814 0.013279 0.012875 -0.999829 
0.033811 3.923155 0.048814 0.013277 0.012876 -0.999829 
-0.54089 3.951275 0.041545 0.013277 0.012876 -0.999829 
0.47775 4.79951 0.065995 0.013277 0.012876 -0.999829 
0.072926 3.263136 -1.606706 0.9995916 0.02513599 0.013596 
-0.519021 3.972482 -1.605432 -0.997588 -0.067963 -0.014121 
-0.491775 3.232144 0.032937 0.018191 -0.9997548 -0.012632 
-0.54089 3.951275 0.041545 0.04869502 0.9987224 0.013507 
0.033811 3.923155 0.048814 0.04869502 0.9987224 0.013507 
0.055679 3.944362 -1.598163 0.04869502 0.9987224 0.013507 
0.454508 5.752444 1.547169 -0.013275 -0.012876 0.999829 
-0.99481 5.765956 0.058889 0.013276 0.012877 -0.999829 
-1.01057 4.775191 1.515131 -0.9999045 -0.003677998 -0.01332399 
-1.014311 5.747041 1.527597 -0.9999045 -0.003677998 -0.01332399 
-0.99481 5.765956 0.058889 -0.9999045 -0.003677998 -0.01332399 
0.468458 7.213483 0.09696 0.9999045 0.003677998 0.01332399 
-1.788797 5.744192 1.517277 0.003849001 -0.9999104 -0.012827 
-1.771081 5.967443 0.051177 -0.013275 -0.012876 0.999829 
1.24005 5.774178 0.088669 0.9999045 0.003678002 0.01332401 
1.239264 5.978517 0.09129 0.9999045 0.003678002 0.01332401 
1.219763 5.959601 1.559998 0.9999045 0.003678002 0.01332401 
1.219763 5.959601 1.559998 -0.003849001 0.9999104 0.012827 
1.24005 5.774178 0.088669 0.003849001 -0.9999104 -0.012827 
0.453722 5.956783 1.549791 -0.003849001 0.9999104 0.012826 
0.473223 5.975698 0.081082 -0.003849001 0.9999104 0.012826 
1.239264 5.978517 0.09129 -0.003849001 0.9999104 0.012826 
1.247955 5.986946 -0.563275 -0.003849001 0.9999104 0.012826 
1.247955 5.986946 -0.563275 0.9999045 0.003678002 0.01332401 
1.239264 5.978517 0.09129 0.9999045 0.003678002 0.01332401 
1.24005 5.774178 0.088669 0.9999045 0.003678002 0.01332401 
1.24005 5.774178 0.088669 0.9999045 0.003679002 0.01332401 
1.251066 5.784862 -0.740943 0.9999045 0.003679002 0.01332401 
1.247955 5.986946 -0.563275 0.9999045 0.003679002 0.01332401 
1.208359 5.743438 2.47553 -0.013276 -0.012876 0.999829 
1.22055 5.755262 1.557377 0.003849001 -0.9999104 -0.012826 
1.208359 5.743438 2.47553 0.9999045 0.003679002 0.01332401 
1.22055 5.755262 1.557377 0.9999045 0.003679002 0.01332401 
1.21006 5.950191 2.290741 0.9999045 0.003679002 0.01332401 
1.208359 5.743438 2.47553 0.9999045 0.003677998 0.01332299 
0.440151 6.303478 2.472542 -0.013275 -0.012876 0.999829 
-1.759279 5.773787 -0.781055 -0.9999045 -0.003677998 -0.01332399 
-1.770294 5.763103 0.048556 -0.9999045 -0.003677998 -0.01332399 
-1.762303 5.975956 -0.60989 -0.9999045 -0.003677998 -0.01332399 
-1.759279 5.773787 -0.781055 -0.9999045 -0.003678002 -0.01332301 
-1.759279 5.773787 -0.781055 0.013275 0.012876 -0.999829 
-1.770294 5.763103 0.048556 0.003849001 -0.9999104 -0.012826 
0.481936 5.98415 -0.575137 -0.003849001 0.9999104 0.012826 
-1.762303 5.975956 -0.60989 -0.003849001 0.9999104 0.012826 
-1.771081 5.967443 0.051177 -0.003849001 0.9999104 0.012826 
-1.794504 5.939155 2.249401 -0.9999045 -0.003678002 -0.01332401 
-1.784819 5.948548 1.519962 -0.9999045 -0.003678002 -0.01332401 
-1.784033 5.744209 1.517341 -0.9999045 -0.003678002 -0.01332401 
-1.784033 5.744209 1.517341 -0.9999045 -0.003677998 -0.01332399 
-1.796223 5.732385 2.435494 -0.9999045 -0.003677998 -0.01332399 
-1.794504 5.939155 2.249401 -0.9999045 -0.003677998 -0.01332399 
-1.796223 5.732385 2.435494 0.003849001 -0.9999104 -0.012826 
-1.784033 5.744209 1.517341 0.013275 0.012876 -0.999829 
-1.788797 5.744192 1.517277 -0.9999045 -0.003678998 -0.01332399 
-1.789584 5.948531 1.519898 -0.9999045 -0.003678998 -0.01332399 
-1.770082 5.967446 0.05119 -0.9999045 -0.003678998 -0.01332399 
-1.789584 5.948531 1.519898 -0.013276 -0.012876 0.999829 
-1.769296 5.763107 0.048569 0.013276 0.012876 -0.999829 
-0.995597 5.970295 0.06151 -0.003849001 0.9999104 0.012827 
0.468458 7.213483 0.09696 -0.003849001 0.9999104 0.012827 
-1.795885 6.297674 2.254 0.013709 0.012878 -0.9998231 
0.444024 5.947377 2.280201 -0.003849001 0.9999104 0.012826 
1.246403 6.390248 -0.558102 -0.015435 -0.012884 0.9997979 
-1.763856 6.379258 -0.604717 -0.9999045 -0.003678002 -0.01332301 
0.448957 7.194568 1.565668 -0.013275 -0.012876 0.999829 
-1.000362 7.208079 0.077388 0.013276 0.012876 -0.999829 
-1.019863 7.189164 1.546096 -0.9999045 -0.003678002 -0.01332401 
-1.763856 6.379258 -0.604717 -0.003849001 0.9999103 0.012829 
0.480383 6.387451 -0.569964 -0.003849001 0.9999103 0.012829 
0.482685 6.389685 -0.743356 -0.003849001 0.9999103 0.012829 
0.480383 6.387451 -0.569964 -0.003850001 0.9999104 0.012827 
1.246403 6.390248 -0.558102 -0.003850001 0.9999104 0.012827 
1.248727 6.392503 -0.733148 -0.003850001 0.9999104 0.012827 
-1.761618 6.381429 -0.773261 0.013275 0.012876 -0.999829 
1.248727 6.392503 -0.733148 0.9999045 0.003678002 0.01332301 
0.480383 6.387451 -0.569964 -0.015435 -0.012884 0.9997979 
0.482685 6.389685 -0.743356 0.013275 0.012876 -0.999829 
0.442643 6.305897 2.2848 -0.003849001 0.9999103 0.012829 
-1.795885 6.297674 2.254 -0.003849001 0.9999103 0.012829 
-1.79839 6.295243 2.442714 -0.003849001 0.9999103 0.012829 
1.20868 6.30871 2.29534 -0.003849001 0.9999103 0.01283 
0.442643 6.305897 2.2848 -0.003849001 0.9999103 0.01283 
0.440151 6.303478 2.472542 -0.003849001 0.9999103 0.01283 
1.21006 5.950191 2.290741 0.9999045 0.003678002 0.01332401 
1.20868 6.30871 2.29534 0.9999045 0.003678002 0.01332401 
1.206192 6.306296 2.48275 0.9999045 0.003678002 0.01332401 
0.442643 6.305897 2.2848 0.01371 0.012878 -0.9998231 
1.206192 6.306296 2.48275 -0.013276 -0.012876 0.999829 
-1.79701 5.936724 2.438115 -0.9999045 -0.003678002 -0.01332301 
-1.79839 6.295243 2.442714 -0.9999045 -0.003678002 -0.01332301 
-1.795885 6.297674 2.254 -0.9999045 -0.003678002 -0.01332301 
0.159569 3.834292 2.764572 0.9995027 0.02843499 0.013637 
0.159569 3.834292 2.764572 0.014613 -0.034436 -0.9993001 
-0.039476 3.826571 2.926539 0.9995027 0.02843399 0.013637 
-0.02077 3.163508 2.938042 -0.014122 0.016946 0.9997568 
0.178121 3.17108 2.787697 0.02860599 -0.9995127 -0.012492 
1.430938 3.870461 2.781918 0.02860499 -0.9995127 -0.012492 
-0.049197 4.166214 2.930784 -0.02860599 0.9995127 0.012493 
0.147663 4.171814 2.93347 -0.02860599 0.9995127 0.012493 
0.149849 4.173934 2.768817 -0.02860599 0.9995127 0.012493 
-0.049197 4.166214 2.930784 -0.013275 -0.012876 0.999829 
-0.049197 4.166214 2.930784 -0.9995027 -0.02843499 -0.013637 
0.159569 3.834292 2.764572 0.013274 0.012876 -0.999829 
-0.03729 3.828691 2.761886 0.013274 0.012876 -0.999829 
-0.04701 4.168334 2.766131 0.013274 0.012876 -0.999829 
1.421218 4.210103 2.786163 0.9995027 0.02843499 0.013638 
0.147663 4.171814 2.93347 -0.02860499 0.9995128 0.01249 
1.419032 4.207983 2.950816 -0.02860499 0.9995128 0.01249 
1.421218 4.210103 2.786163 -0.02860499 0.9995128 0.01249 
0.149849 4.173934 2.768817 0.013275 0.012877 -0.999829 
1.421218 4.210103 2.786163 0.013275 0.012877 -0.999829 
1.430938 3.870461 2.781918 0.013275 0.012877 -0.999829 
1.428752 3.86834 2.946571 -0.013275 -0.012876 0.999829 
3 0 1 2 
3 3 4 5 
3 6 7 8 
3 9 10 11 
3 12 13 14 
3 15 16 17 
3 18 19 20 
3 21 22 23 
3 24 25 26 
3 27 28 29 
3 30 31 32 
3 33 34 35 
3 36 37 38 
3 39 40 41 
3 42 43 44 
3 45 46 47 
3 48 49 50 
3 51 52 53 
3 54 55 56 
3 57 58 59 
3 60 61 62 
3 63 64 65 
3 66 67 68 
3 69 70 71 
3 53 72 51 
3 73 74 75 
3 76 77 78 
3 79 80 81 
3 82 83 84 
3 85 86 87 
3 88 89 90 
3 91 92 93 
3 94 95 96 
3 97 98 99 
3 100 101 102 
3 93 103 104 
3 105 106 107 
3 108 109 110 
3 111 112 113 
3 114 115 116 
3 117 118 119 
3 120 121 122 
3 123 124 125 
3 102 126 100 
3 108 127 128 
3 129 130 131 
3 132 133 134 
3 120 135 136 
3 137 138 139 
3 140 141 142 
3 143 144 145 
3 146 147 148 
3 66 149 150 
3 151 152 153 
3 154 155 156 
3 157 158 159 
3 160 161 162 
3 163 164 165 
3 166 167 168 
3 169 170 86 
3 150 171 67 
3 172 173 174 
3 175 176 177 
3 178 179 180 
3 181 182 183 
3 184 185 186 
3 187 188 189 
3 100 190 191 
3 192 193 194 
3 195 196 197 
3 198 199 200 
3 201 202 203 
3 204 205 206 
3 207 208 209 
3 210 211 212 
3 213 214 215 
3 216 217 218 
3 219 220 221 
3 222 223 224 
3 225 226 227 
3 228 229 230 
3 231 232 233 
3 234 235 236 
3 237 238 239 
3 240 241 242 
3 243 244 245 
3 239 246 237 
3 247 248 249 
3 0 250 1 
3 3 251 4 
3 27 29 252 
3 253 254 255 
3 3 5 256 
3 15 257 16 
3 18 258 19 
3 259 260 261 
3 262 263 264 
3 265 266 267 
3 268 269 270 
3 271 272 273 
3 274 275 276 
3 277 278 279 
3 280 281 282 
3 27 283 28 
3 284 285 286 
3 287 288 289 
3 290 291 292 
3 38 293 294 
3 295 296 297 
3 298 299 300 
3 301 302 303 
3 304 305 306 
3 307 308 309 
3 42 310 43 
3 45 311 46 
3 312 313 314 
3 315 316 317 
3 318 319 320 
3 54 321 55 
3 57 322 58 
3 60 323 61 
3 324 325 326 
3 66 150 67 
3 69 327 70 
3 53 328 72 
3 329 330 331 
3 76 332 77 
3 79 333 80 
3 82 334 83 
3 85 169 86 
3 335 336 337 
3 91 338 92 
3 94 339 95 
3 97 340 98 
3 100 191 101 
3 341 342 343 
3 344 345 346 
3 347 348 349 
3 108 128 109 
3 111 350 112 
3 114 351 115 
3 352 353 354 
3 198 200 355 
3 120 356 121 
3 357 358 359 
3 166 168 360 
3 102 361 126 
3 108 362 127 
3 363 364 365 
3 366 367 368 
3 369 370 371 
3 120 122 135 
3 137 372 138 
3 140 373 141 
3 374 375 376 
3 146 377 147 
3 66 378 149 
3 151 379 152 
3 154 380 155 
3 157 381 158 
3 160 382 161 
3 163 383 164 
3 166 384 167 
3 169 385 170 
3 150 386 171 
3 172 387 173 
3 388 389 390 
3 391 392 393 
3 181 394 182 
3 184 395 185 
3 187 396 188 
3 100 397 190 
3 398 399 400 
3 401 402 403 
3 404 405 406 
3 201 407 202 
3 204 408 205 
3 409 410 411 
3 210 412 211 
3 213 413 214 
3 216 414 217 
3 219 415 220 
3 222 416 223 
3 225 417 226 
3 418 419 420 
3 247 249 421 
3 234 422 235 
3 423 424 425 
3 240 426 241 
3 427 428 429 
3 430 431 432 
3 247 433 248 
