ply
format ascii 1.0
comment VCGLIB generated
element vertex 252
property float x
property float y
property float z
property float nx
property float ny
property float nz
element face 106
property list uchar int vertex_indices
end_header
-1.385823 9.907324 -48.92869 0.2364451 0.5437352 0.8052613 
-0.386942 10.69164 -49.75158 0.2364451 0.5437352 0.8052613 
-1.385823 10.69164 -49.45828 0.2364451 0.5437352 0.8052613 
-0.100624 9.907324 -49.30606 0.6342682 0.5437342 0.5495972 
0.294801 10.69164 -50.53835 0.6342682 0.5437342 0.5495972 
-0.386942 10.69164 -49.75158 0.6342682 0.5437342 0.5495972 
0.776533 9.907324 -50.31835 0.8307151 0.5437341 0.119439 
0.442958 10.69164 -51.56881 0.8307151 0.5437341 0.119439 
0.294801 10.69164 -50.53835 0.8307151 0.5437341 0.119439 
0.967158 9.907324 -51.64417 0.7634151 0.5437341 -0.3486411 
0.01049 10.69164 -52.51578 0.7634151 0.5437341 -0.3486411 
0.442958 10.69164 -51.56881 0.7634151 0.5437341 -0.3486411 
0.410727 9.907324 -52.86259 0.453737 0.543736 -0.706027 
-0.865298 10.69164 -53.07861 0.453737 0.543736 -0.706027 
0.01049 10.69164 -52.51578 0.453737 0.543736 -0.706027 
-0.716095 9.907324 -53.58675 0 0.5437331 -0.8392582 
-1.906349 10.69164 -53.07861 0 0.5437331 -0.8392582 
-0.865298 10.69164 -53.07861 0 0.5437331 -0.8392582 
-1.906349 10.69164 -53.07861 -0.453737 0.543736 -0.706027 
-3.182374 9.907324 -52.86259 -0.453737 0.543736 -0.706027 
-2.782137 10.69164 -52.51578 -0.453737 0.543736 -0.706027 
-2.782137 10.69164 -52.51578 -0.7634151 0.5437341 -0.3486411 
-3.738804 9.907324 -51.64417 -0.7634151 0.5437341 -0.3486411 
-3.214605 10.69164 -51.56881 -0.7634151 0.5437341 -0.3486411 
-3.214605 10.69164 -51.56881 -0.8307151 0.5437341 0.119439 
-3.54818 9.907324 -50.31835 -0.8307151 0.5437341 0.119439 
-3.066447 10.69164 -50.53835 -0.8307151 0.5437341 0.119439 
-3.54818 9.907324 -50.31835 -0 -1 0 
-3.182374 9.907324 -52.86259 -0 -1 0 
0.967158 9.907324 -51.64417 -0 -1 0 
-3.54818 9.907324 -50.31835 -0.6342678 0.5437329 0.5495989 
-2.384704 10.69164 -49.75158 -0.6342678 0.5437329 0.5495989 
-3.066447 10.69164 -50.53835 -0.6342678 0.5437329 0.5495989 
-2.671022 9.907324 -49.30606 -0.2364481 0.5437372 0.8052592 
-1.385823 10.69164 -49.45828 -0.2364481 0.5437372 0.8052592 
-2.384704 10.69164 -49.75158 -0.2364481 0.5437372 0.8052592 
-2.69577 11.90732 -52.44094 -0.524744 0.240725 -0.8165141 
-1.816008 12.70575 -52.77094 -0.524744 0.240725 -0.8165141 
-1.874153 11.90732 -52.96896 -0.524744 0.240725 -0.8165141 
-2.384704 10.69164 -49.75158 -0.2805951 0.08983202 0.9556133 
-1.385823 11.90732 -49.57256 -0.2805951 0.08983202 0.9556133 
-2.32292 11.90732 -49.84772 -0.2805951 0.08983202 0.9556133 
-3.066447 10.69164 -50.53835 -0.7526931 0.08983202 0.6522141 
-2.32292 11.90732 -49.84772 -0.7526931 0.08983202 0.6522141 
-2.962495 11.90732 -50.58582 -0.7526931 0.08983202 0.6522141 
-3.214605 10.69164 -51.56881 -0.9858195 0.08983196 0.1417399 
-2.962495 11.90732 -50.58582 -0.9858195 0.08983196 0.1417399 
-3.101488 11.90732 -51.55254 -0.9858195 0.08983196 0.1417399 
-2.782137 10.69164 -52.51578 -0.9059546 0.08983196 -0.4137348 
-3.101488 11.90732 -51.55254 -0.9059546 0.08983196 -0.4137348 
-2.69577 11.90732 -52.44094 -0.9059546 0.08983196 -0.4137348 
-1.906349 10.69164 -53.07861 -0.5384559 0.08983098 -0.8378518 
-2.69577 11.90732 -52.44094 -0.5384559 0.08983098 -0.8378518 
-1.874153 11.90732 -52.96896 -0.5384559 0.08983098 -0.8378518 
-0.865298 10.69164 -53.07861 0 0.089831 -0.995957 
-1.874153 11.90732 -52.96896 0 0.089831 -0.995957 
-0.897495 11.90732 -52.96896 0 0.089831 -0.995957 
0.01049 10.69164 -52.51578 0.5384558 0.08983197 -0.8378517 
-0.897495 11.90732 -52.96896 0.5384558 0.08983197 -0.8378517 
-0.075878 11.90732 -52.44094 0.5384558 0.08983197 -0.8378517 
0.442958 10.69164 -51.56881 0.9059543 0.08983303 -0.4137352 
-0.075878 11.90732 -52.44094 0.9059543 0.08983303 -0.4137352 
0.329841 11.90732 -51.55254 0.9059543 0.08983303 -0.4137352 
0.294801 10.69164 -50.53835 0.9858196 0.08983197 0.141739 
0.329841 11.90732 -51.55254 0.9858196 0.08983197 0.141739 
0.190848 11.90732 -50.58582 0.9858196 0.08983197 0.141739 
-0.386942 10.69164 -49.75158 0.7526925 0.08983395 0.6522146 
0.190848 11.90732 -50.58582 0.7526925 0.08983395 0.6522146 
-0.448727 11.90732 -49.84772 0.7526925 0.08983395 0.6522146 
-1.385823 10.69164 -49.45828 0.2805951 0.08983202 0.9556133 
-0.448727 11.90732 -49.84772 0.2805951 0.08983202 0.9556133 
-1.385823 11.90732 -49.57256 0.2805951 0.08983202 0.9556133 
-2.774763 12.70575 -50.67156 0.9898214 0 -0.1423151 
-2.897207 11.52225 -51.52317 0.9898214 0 -0.1423151 
-2.897207 12.70575 -51.52317 0.9898214 0 -0.1423151 
-1.874153 11.90732 -52.96896 0 0.240726 -0.9705932 
-0.955639 12.70575 -52.77094 0 0.240726 -0.9705932 
-0.897495 11.90732 -52.96896 0 0.240726 -0.9705932 
-0.075878 11.90732 -52.44094 0.524741 0.240722 -0.8165169 
-0.955639 12.70575 -52.77094 0.524741 0.240722 -0.8165169 
-0.23185 12.70575 -52.30579 0.524741 0.240722 -0.8165169 
-0.075878 11.90732 -52.44094 0.882884 0.240721 -0.403199 
0.12556 12.70575 -51.52317 0.882884 0.240721 -0.403199 
0.329841 11.90732 -51.55254 0.882884 0.240721 -0.403199 
-1.385823 11.90732 -49.57256 0.2734471 0.2407231 0.9312782 
-0.560305 12.70575 -50.02134 0.2734471 0.2407231 0.9312782 
-1.385823 12.70575 -49.77894 0.2734471 0.2407231 0.9312782 
0.329841 11.90732 -51.55254 0.9607149 0.240722 0.13813 
0.003117 12.70575 -50.67156 0.9607149 0.240722 0.13813 
0.190848 11.90732 -50.58582 0.9607149 0.240722 0.13813 
-1.385823 11.90732 -49.57256 -0.2734491 0.240721 0.9312782 
-2.211342 12.70575 -50.02134 -0.2734491 0.240721 0.9312782 
-2.32292 11.90732 -49.84772 -0.2734491 0.240721 0.9312782 
0.190848 11.90732 -50.58582 0.7335249 0.240721 0.6356059 
-0.560305 12.70575 -50.02134 0.7335249 0.240721 0.6356059 
-0.448727 11.90732 -49.84772 0.7335249 0.240721 0.6356059 
-2.962495 11.90732 -50.58582 -0.7335259 0.240723 0.6356039 
-2.211342 12.70575 -50.02134 -0.7335259 0.240723 0.6356039 
-2.774763 12.70575 -50.67156 -0.7335259 0.240723 0.6356039 
-2.962495 11.90732 -50.58582 -0.9607149 0.240722 0.13813 
-2.897207 12.70575 -51.52317 -0.9607149 0.240722 0.13813 
-3.101488 11.90732 -51.55254 -0.9607149 0.240722 0.13813 
-3.101488 11.90732 -51.55254 -0.8828841 0.240722 -0.403198 
-2.539797 12.70575 -52.30579 -0.8828841 0.240722 -0.403198 
-2.69577 11.90732 -52.44094 -0.8828841 0.240722 -0.403198 
-0.560305 11.52225 -50.02134 -0 1 0 
-2.539797 11.52225 -52.30579 -0 1 0 
-2.774763 11.52225 -50.67156 -0 1 0 
-0.955639 12.70575 -52.77094 0 -0 1 
-1.816008 11.52225 -52.77094 0 -0 1 
-0.955639 11.52225 -52.77094 0 -0 1 
0.12556 12.70575 -51.52317 -0.9898215 -0 -0.1423149 
0.003117 11.52225 -50.67156 -0.9898215 -0 -0.1423149 
0.003117 12.70575 -50.67156 -0.9898215 -0 -0.1423149 
-2.211342 12.70575 -50.02134 0.7557492 0 -0.6548612 
-2.774763 11.52225 -50.67156 0.7557492 0 -0.6548612 
-2.774763 12.70575 -50.67156 0.7557492 0 -0.6548612 
-2.539797 12.70575 -52.30579 0.5406389 0 0.8412548 
-1.816008 11.52225 -52.77094 0.5406389 0 0.8412548 
-1.816008 12.70575 -52.77094 0.5406389 0 0.8412548 
-0.23185 12.70575 -52.30579 -0.909632 -0 0.415415 
0.12556 11.52225 -51.52317 -0.909632 -0 0.415415 
0.12556 12.70575 -51.52317 -0.909632 -0 0.415415 
-1.385823 12.70575 -49.77894 0.2817321 0 -0.9594932 
-2.211341 11.52225 -50.02134 0.2817321 0 -0.9594932 
-2.211342 12.70575 -50.02134 0.2817321 0 -0.9594932 
-0.560305 12.70575 -50.02134 -0.2817321 -0 -0.9594932 
-1.385823 11.52225 -49.77894 -0.2817321 -0 -0.9594932 
-1.385823 12.70575 -49.77894 -0.2817321 -0 -0.9594932 
-2.897207 12.70575 -51.52317 0.909632 0 0.415415 
-2.539797 11.52225 -52.30579 0.909632 0 0.415415 
-2.539797 12.70575 -52.30579 0.909632 0 0.415415 
-0.23185 12.70575 -52.30579 -0.5406393 -0 0.8412545 
-0.955639 11.52225 -52.77094 -0.5406393 -0 0.8412545 
-0.23185 11.52225 -52.30579 -0.5406393 -0 0.8412545 
0.003117 12.70575 -50.67156 -0.7557492 -0 -0.6548612 
-0.560305 11.52225 -50.02134 -0.7557492 -0 -0.6548612 
-0.560305 12.70575 -50.02134 -0.7557492 -0 -0.6548612 
-1.385823 9.907324 -48.92869 0.236446 0.543734 0.8052619 
-0.100624 9.907324 -49.30606 0.236446 0.543734 0.8052619 
-0.386942 10.69164 -49.75158 0.236446 0.543734 0.8052619 
-0.100624 9.907324 -49.30606 0.6342691 0.5437331 0.5495971 
0.776533 9.907324 -50.31835 0.6342691 0.5437331 0.5495971 
0.294801 10.69164 -50.53835 0.6342691 0.5437331 0.5495971 
0.776533 9.907324 -50.31835 0.8307147 0.5437348 0.119439 
0.967158 9.907324 -51.64417 0.8307147 0.5437348 0.119439 
0.442958 10.69164 -51.56881 0.8307147 0.5437348 0.119439 
0.967158 9.907324 -51.64417 0.763415 0.543735 -0.34864 
0.410727 9.907324 -52.86259 0.763415 0.543735 -0.34864 
0.01049 10.69164 -52.51578 0.763415 0.543735 -0.34864 
0.410727 9.907324 -52.86259 0.453736 0.543734 -0.706029 
-0.716095 9.907324 -53.58675 0.453736 0.543734 -0.706029 
-0.865298 10.69164 -53.07861 0.453736 0.543734 -0.706029 
-2.055552 9.907324 -53.58675 0 0.5437331 -0.8392582 
-1.906349 10.69164 -53.07861 -0.453736 0.543734 -0.706029 
-2.055552 9.907324 -53.58675 -0.453736 0.543734 -0.706029 
-3.182374 9.907324 -52.86259 -0.453736 0.543734 -0.706029 
-2.782137 10.69164 -52.51578 -0.7634153 0.5437352 -0.3486391 
-3.182374 9.907324 -52.86259 -0.7634153 0.5437352 -0.3486391 
-3.738804 9.907324 -51.64417 -0.7634153 0.5437352 -0.3486391 
-3.214605 10.69164 -51.56881 -0.8307147 0.5437348 0.119439 
-3.738804 9.907324 -51.64417 -0.8307147 0.5437348 0.119439 
-3.54818 9.907324 -50.31835 -0.8307147 0.5437348 0.119439 
0.776533 9.907324 -50.31835 0 -1 0 
-0.100624 9.907324 -49.30606 0 -1 0 
-1.385823 9.907324 -48.92869 0 -1 0 
-2.671022 9.907324 -49.30606 0 -1 0 
-3.738804 9.907324 -51.64417 0 -1 0 
-2.055552 9.907324 -53.58675 0 -1 0 
-0.716095 9.907324 -53.58675 0 -1 0 
0.410727 9.907324 -52.86259 0 -1 0 
-3.54818 9.907324 -50.31835 -0.6342682 0.5437362 0.5495952 
-2.671022 9.907324 -49.30606 -0.6342682 0.5437362 0.5495952 
-2.384704 10.69164 -49.75158 -0.6342682 0.5437362 0.5495952 
-2.671022 9.907324 -49.30606 -0.236446 0.5437351 0.8052611 
-1.385823 9.907324 -48.92869 -0.236446 0.5437351 0.8052611 
-1.385823 10.69164 -49.45828 -0.236446 0.5437351 0.8052611 
-2.69577 11.90732 -52.44094 -0.524741 0.240722 -0.8165169 
-2.539797 12.70575 -52.30579 -0.524741 0.240722 -0.8165169 
-1.816008 12.70575 -52.77094 -0.524741 0.240722 -0.8165169 
-2.384704 10.69164 -49.75158 -0.280596 0.089832 0.955613 
-1.385823 10.69164 -49.45828 -0.280596 0.089832 0.955613 
-1.385823 11.90732 -49.57256 -0.280596 0.089832 0.955613 
-3.066447 10.69164 -50.53835 -0.7526922 0.08983203 0.6522152 
-2.384704 10.69164 -49.75158 -0.7526922 0.08983203 0.6522152 
-2.32292 11.90732 -49.84772 -0.7526922 0.08983203 0.6522152 
-3.214605 10.69164 -51.56881 -0.9858196 0.08983197 0.141739 
-3.066447 10.69164 -50.53835 -0.9858196 0.08983197 0.141739 
-2.962495 11.90732 -50.58582 -0.9858196 0.08983197 0.141739 
-2.782137 10.69164 -52.51578 -0.905954 0.089833 -0.413736 
-3.214605 10.69164 -51.56881 -0.905954 0.089833 -0.413736 
-3.101488 11.90732 -51.55254 -0.905954 0.089833 -0.413736 
-1.906349 10.69164 -53.07861 -0.5384558 0.08983197 -0.8378517 
-2.782137 10.69164 -52.51578 -0.5384558 0.08983197 -0.8378517 
-2.69577 11.90732 -52.44094 -0.5384558 0.08983197 -0.8378517 
-1.906349 10.69164 -53.07861 0 0.089831 -0.995957 
0.01049 10.69164 -52.51578 0.5384559 0.08983098 -0.8378518 
-0.865298 10.69164 -53.07861 0.5384559 0.08983098 -0.8378518 
-0.897495 11.90732 -52.96896 0.5384559 0.08983098 -0.8378518 
0.442958 10.69164 -51.56881 0.9059541 0.08983201 -0.413736 
0.01049 10.69164 -52.51578 0.9059541 0.08983201 -0.413736 
-0.075878 11.90732 -52.44094 0.9059541 0.08983201 -0.413736 
0.442958 10.69164 -51.56881 0.9858196 0.08983197 0.141739 
-0.386942 10.69164 -49.75158 0.7526941 0.08983201 0.652213 
0.294801 10.69164 -50.53835 0.7526941 0.08983201 0.652213 
0.190848 11.90732 -50.58582 0.7526941 0.08983201 0.652213 
-1.385823 10.69164 -49.45828 0.280592 0.089835 0.9556139 
-0.386942 10.69164 -49.75158 0.280592 0.089835 0.9556139 
-0.448727 11.90732 -49.84772 0.280592 0.089835 0.9556139 
-2.774763 11.52225 -50.67156 0.9898214 0 -0.1423151 
-1.816008 12.70575 -52.77094 0 0.240726 -0.9705932 
-0.075878 11.90732 -52.44094 0.5247433 0.2407251 -0.8165144 
-0.897495 11.90732 -52.96896 0.5247433 0.2407251 -0.8165144 
-0.955639 12.70575 -52.77094 0.5247433 0.2407251 -0.8165144 
-0.075878 11.90732 -52.44094 0.8828835 0.2407221 -0.4031992 
-0.23185 12.70575 -52.30579 0.8828835 0.2407221 -0.4031992 
0.12556 12.70575 -51.52317 0.8828835 0.2407221 -0.4031992 
-1.385823 11.90732 -49.57256 0.2734491 0.240721 0.9312782 
-0.448727 11.90732 -49.84772 0.2734491 0.240721 0.9312782 
-0.560305 12.70575 -50.02134 0.2734491 0.240721 0.9312782 
0.12556 12.70575 -51.52317 0.9607149 0.240722 0.13813 
-1.385823 11.90732 -49.57256 -0.2734471 0.2407231 0.9312782 
-1.385823 12.70575 -49.77894 -0.2734471 0.2407231 0.9312782 
-2.211342 12.70575 -50.02134 -0.2734471 0.2407231 0.9312782 
0.190848 11.90732 -50.58582 0.7335259 0.240723 0.6356039 
0.003117 12.70575 -50.67156 0.7335259 0.240723 0.6356039 
-0.560305 12.70575 -50.02134 0.7335259 0.240723 0.6356039 
-2.962495 11.90732 -50.58582 -0.7335253 0.2407211 0.6356052 
-2.32292 11.90732 -49.84772 -0.7335253 0.2407211 0.6356052 
-2.211342 12.70575 -50.02134 -0.7335253 0.2407211 0.6356052 
-2.774763 12.70575 -50.67156 -0.9607149 0.240722 0.13813 
-3.101488 11.90732 -51.55254 -0.882884 0.240721 -0.403199 
-2.897207 12.70575 -51.52317 -0.882884 0.240721 -0.403199 
-2.539797 12.70575 -52.30579 -0.882884 0.240721 -0.403199 
-2.211341 11.52225 -50.02134 0 1 0 
-1.385823 11.52225 -49.77894 0 1 0 
0.003117 11.52225 -50.67156 0 1 0 
0.12556 11.52225 -51.52317 0 1 0 
-0.23185 11.52225 -52.30579 0 1 0 
-0.955639 11.52225 -52.77094 0 1 0 
-1.816008 11.52225 -52.77094 -0 1 0 
-2.897207 11.52225 -51.52317 0 1 0 
-1.816008 12.70575 -52.77094 0 -0 1 
0.12556 11.52225 -51.52317 -0.9898215 -0 -0.1423149 
-2.211341 11.52225 -50.02134 0.7557492 0 -0.6548612 
-2.539797 11.52225 -52.30579 0.5406389 -0 0.8412548 
-0.23185 11.52225 -52.30579 -0.909632 -0 0.415415 
-1.385823 11.52225 -49.77894 0.2817321 0 -0.9594932 
-0.560305 11.52225 -50.02134 -0.2817321 -0 -0.9594932 
-2.897207 11.52225 -51.52317 0.909632 -0 0.415415 
-0.955639 12.70575 -52.77094 -0.5406393 -0 0.8412545 
0.003117 11.52225 -50.67156 -0.7557492 -0 -0.6548612 
3 0 1 2 
3 3 4 5 
3 6 7 8 
3 9 10 11 
3 12 13 14 
3 15 16 17 
3 18 19 20 
3 21 22 23 
3 24 25 26 
3 27 28 29 
3 30 31 32 
3 33 34 35 
3 36 37 38 
3 39 40 41 
3 42 43 44 
3 45 46 47 
3 48 49 50 
3 51 52 53 
3 54 55 56 
3 57 58 59 
3 60 61 62 
3 63 64 65 
3 66 67 68 
3 69 70 71 
3 72 73 74 
3 75 76 77 
3 78 79 80 
3 81 82 83 
3 84 85 86 
3 87 88 89 
3 90 91 92 
3 93 94 95 
3 96 97 98 
3 99 100 101 
3 102 103 104 
3 105 106 107 
3 108 109 110 
3 111 112 113 
3 114 115 116 
3 117 118 119 
3 120 121 122 
3 123 124 125 
3 126 127 128 
3 129 130 131 
3 132 133 134 
3 135 136 137 
3 138 139 140 
3 141 142 143 
3 144 145 146 
3 147 148 149 
3 150 151 152 
3 15 153 16 
3 154 155 156 
3 157 158 159 
3 160 161 162 
3 163 164 165 
3 165 166 27 
3 27 167 28 
3 28 168 169 
3 169 170 29 
3 29 163 165 
3 165 27 29 
3 28 169 29 
3 171 172 173 
3 174 175 176 
3 177 178 179 
3 180 181 182 
3 183 184 185 
3 186 187 188 
3 189 190 191 
3 192 193 194 
3 54 195 55 
3 196 197 198 
3 199 200 201 
3 63 202 64 
3 203 204 205 
3 206 207 208 
3 72 209 73 
3 75 210 76 
3 211 212 213 
3 214 215 216 
3 217 218 219 
3 87 220 88 
3 221 222 223 
3 224 225 226 
3 227 228 229 
3 99 230 100 
3 231 232 233 
3 234 235 105 
3 105 236 237 
3 237 238 239 
3 239 240 106 
3 106 241 107 
3 107 234 105 
3 105 237 239 
3 239 106 105 
3 108 242 109 
3 111 243 112 
3 114 244 115 
3 117 245 118 
3 120 246 121 
3 123 247 124 
3 126 248 127 
3 129 249 130 
3 132 250 133 
3 135 251 136 
