ply
format ascii 1.0
comment VCGLIB generated
element vertex 26
property float x
property float y
property float z
property float nx
property float ny
property float nz
element face 12
property list uchar int vertex_indices
end_header
-1 -1 -1 0 -1 -0 
1 -1 1 0 -1 -0 
-1 -1 1 0 -1 -0 
1 1 1 -0 1 0 
-0.999999 1 -1.000001 -0 1 0 
-1 1 1 -0 1 0 
-1 1 1 -1 -0 -0 
-1 -1 -1 -1 -0 -0 
-1 -1 1 -1 -0 -0 
-0.999999 1 -1.000001 0 -0 -1 
1 -1 -1 0 -0 -1 
-1 -1 -1 0 -0 -1 
1 -1 -1 1 -0 0 
1 1 1 1 -0 0 
1 -1 1 1 -0 0 
-1 -1 1 -0 0 1 
1 1 1 -0 0 1 
-1 1 1 -0 0 1 
1 -1 -1 0 -1 -0 
1 1 -1 0 1 -0 
-1 1 1 -1 0 -1e-06 
-0.999999 1 -1.000001 -1 0 -1e-06 
-1 -1 -1 -1 0 -1e-06 
1 1 -1 0 0 -1 
1 1 -1 1 -0 0 
1 -1 1 -0 0 1 
3 0 1 2 
3 3 4 5 
3 6 7 8 
3 9 10 11 
3 12 13 14 
3 15 16 17 
3 0 18 1 
3 3 19 4 
3 20 21 22 
3 9 23 10 
3 12 24 13 
3 15 25 16 
