ply
format ascii 1.0
comment VCGLIB generated
element vertex 690
property float x
property float y
property float z
property float nx
property float ny
property float nz
element face 634
property list uchar int vertex_indices
end_header
-3.314511 3.130779 37.68605 -0 0.999999 0.001251 
-0.348875 3.138283 31.68606 -0 0.999999 0.001251 
-3.314511 3.138283 31.68606 -0 0.999999 0.001251 
-0.315797 3.130779 37.68605 -0 0.999999 0.001251 
2.685489 3.138283 31.68606 -0 0.999999 0.001251 
2.685489 3.130779 37.68605 -0 0.999999 0.001251 
5.26817 3.138283 31.68606 -0 0.999999 0.001251 
5.26817 3.130779 37.68605 -0 0.999999 0.001251 
8.067706 3.138283 31.68606 -0 0.999999 0.001251 
8.067706 3.130779 37.68605 -0 0.999999 0.001251 
10.94816 3.138283 31.68606 -0 0.999999 0.001251 
-6.236389 3.130779 37.68605 0 0.999999 0.001251 
-6.236389 3.138283 31.68606 0 0.999999 0.001251 
-9.387862 3.130779 37.68605 0 0.999999 0.001251 
-9.387862 3.138283 31.68606 0 0.999999 0.001251 
-12.38602 3.130779 37.68605 0 0.999999 0.001251 
10.94816 3.138283 31.68606 -0 1 0 
8.067706 3.138283 26.77331 -0 1 0 
8.067706 3.138283 31.68606 -0 1 0 
-0.348875 3.138283 31.68606 -0 1 0 
-3.314511 3.138283 26.77331 -0 1 0 
-3.314511 3.138283 31.68606 -0 1 0 
-6.236389 3.138283 31.68606 -0 1 0 
-9.387862 3.138283 26.77331 -0 1 0 
-9.387862 3.138283 31.68606 -0 1 0 
5.26817 3.138283 31.68606 -0 1 0 
2.685489 3.138283 26.77331 -0 1 0 
2.685489 3.138283 31.68606 -0 1 0 
-12.38602 3.138283 26.77331 -0 1 0 
-12.38602 3.138283 31.68606 -0 1 0 
5.26817 3.138283 26.77331 -0 1 0 
-6.236389 3.138283 26.77331 -0 1 0 
-0.348875 3.138283 26.77331 -0 1 0 
-3.314511 3.138283 21.93448 0 1 0 
-12.38602 3.138283 21.93448 0 1 0 
-6.236389 3.138283 21.93448 0 1 0 
5.26817 3.138283 21.93448 0 1 0 
-0.348875 3.138283 21.93448 0 1 0 
-9.387862 3.138283 21.93448 0 1 0 
10.94816 3.138283 26.77331 0 1 0 
8.067706 3.138283 21.93448 0 1 0 
2.685489 3.138283 21.93448 0 1 0 
-12.38602 3.130779 37.68605 0 1 -0 
-9.387862 3.130779 43.563 0 1 -0 
-9.387862 3.130779 37.68605 0 1 -0 
-0.315797 3.130779 37.68605 0 1 -0 
2.685489 3.130779 43.563 0 1 -0 
2.685489 3.130779 37.68605 0 1 -0 
5.26817 3.130779 37.68605 0 1 -0 
8.067706 3.130779 43.563 0 1 -0 
8.067706 3.130779 37.68605 0 1 -0 
-6.236389 3.130779 37.68605 0 1 -0 
-3.314511 3.130779 43.563 0 1 -0 
-3.314511 3.130779 37.68605 0 1 -0 
10.94816 3.130779 43.563 0 1 -0 
10.94816 3.130779 37.68605 0 1 -0 
-0.315797 3.130779 43.563 0 1 -0 
-6.236389 3.130779 43.563 0 1 -0 
5.26817 3.130779 43.563 0 1 -0 
-3.314511 3.138283 21.93448 0 0.887177 -0.46143 
-6.236389 0.607994 17.06958 0 0.887177 -0.46143 
-6.236389 3.138283 21.93448 0 0.887177 -0.46143 
8.067706 3.138283 21.93448 0 0.887176 -0.46143 
5.26817 0.607994 17.06958 0 0.887176 -0.46143 
5.26817 3.138283 21.93448 0 0.887176 -0.46143 
2.685489 3.138283 21.93448 0 0.887176 -0.46143 
-0.348875 0.607994 17.06958 0 0.887176 -0.46143 
-0.348875 3.138283 21.93448 0 0.887176 -0.46143 
-6.236389 3.138283 21.93448 0 0.887176 -0.46143 
-9.387862 0.607994 17.06958 0 0.887176 -0.46143 
-9.387862 3.138283 21.93448 0 0.887176 -0.46143 
10.94816 3.138283 21.93448 0 0.887176 -0.46143 
8.067706 0.607994 17.06958 0 0.887176 -0.46143 
2.685489 0.607994 17.06958 0 0.887176 -0.46143 
-3.314511 0.607994 17.06958 0 0.887176 -0.46143 
-3.314511 3.138283 21.93448 0 0.887176 -0.46143 
-12.38602 0.607994 17.06958 0 0.887176 -0.46143 
-12.38602 3.138283 21.93448 0 0.887176 -0.46143 
10.94816 0.607994 17.06958 -0 1 0 
8.067706 0.607994 11.73333 -0 1 0 
8.067706 0.607994 17.06958 -0 1 0 
5.26817 0.607994 17.06958 -0 1 0 
2.685489 0.607994 11.73333 -0 1 0 
2.685489 0.607994 17.06958 -0 1 0 
-0.348875 0.607994 17.06958 -0 1 0 
-3.314511 0.607994 11.73333 -0 1 0 
-3.314511 0.607994 17.06958 -0 1 0 
-9.387862 0.607994 17.06958 -0 1 0 
-12.38602 0.607994 11.73333 -0 1 0 
-12.38602 0.607994 17.06958 -0 1 0 
-6.236389 0.607994 11.73333 -0 1 0 
-6.236389 0.607994 17.06958 -0 1 0 
5.26817 0.607994 11.73333 -0 1 0 
-0.348875 0.607994 11.73333 -0 1 0 
-9.387862 0.607994 11.73333 -0 1 0 
-12.38602 0.607995 5.33142 0 1 0 
-3.314511 0.607994 11.73333 0 -0 1 
-6.236389 5.168642 11.73333 0 -0 1 
-6.236389 0.607994 11.73333 0 -0 1 
5.26817 0.607995 5.33142 0 1 0 
-0.348875 0.607995 5.33142 0 1 0 
-9.387862 0.607995 5.33142 0 1 0 
10.94816 0.607994 11.73333 0 1 0 
8.067706 0.607995 5.33142 0 1 0 
5.26817 0.607994 11.73333 1 0 0 
5.26817 5.025999 5.331422 1 0 0 
5.26817 5.025999 11.73333 1 0 0 
-3.314511 0.607995 5.33142 0 1 0 
5.26817 0.607995 -0.129701 -0 1 0 
2.685489 0.607995 5.33142 -0 1 0 
-0.348875 0.607995 -0.129701 -0 1 0 
-6.236389 0.607995 5.33142 -0 1 0 
-9.387862 0.607995 -0.129701 -0 1 0 
10.94816 0.607995 5.33142 -0 1 0 
8.067706 0.607995 -0.129701 -0 1 0 
2.685489 0.607995 -0.129701 -0 1 0 
-3.314511 0.607995 -0.129701 -0 1 0 
-12.38602 0.607995 -0.129701 -0 1 0 
-6.236389 0.607995 -0.129701 -0 1 0 
-6.236389 0.607995 -0.129701 0 0.770118 -0.637901 
-9.387862 -2.625193 -4.033029 0 0.770118 -0.637901 
-9.387862 0.607995 -0.129701 0 0.770118 -0.637901 
10.94816 0.607995 -0.129701 0 0.770118 -0.637901 
8.067706 -2.625193 -4.033029 0 0.770118 -0.637901 
8.067706 0.607995 -0.129701 0 0.770118 -0.637901 
5.26817 0.607995 -0.129701 0 0.770118 -0.637901 
2.685489 -2.625193 -4.033029 0 0.770118 -0.637901 
2.685489 0.607995 -0.129701 0 0.770118 -0.637901 
-0.348875 0.607995 -0.129701 0 0.770118 -0.637901 
-3.314511 -2.625193 -4.033029 0 0.770118 -0.637901 
-3.314511 0.607995 -0.129701 0 0.770118 -0.637901 
-12.38602 -2.625193 -4.033029 0 0.770118 -0.637901 
-12.38602 0.607995 -0.129701 0 0.770118 -0.637901 
-6.236389 -2.625193 -4.033029 0 0.770118 -0.637901 
5.26817 -2.625193 -4.033029 0 0.770118 -0.637901 
-0.348875 -2.625193 -4.033029 0 0.770118 -0.637901 
5.26817 -2.625193 -4.033029 0 1 0 
2.685489 -2.625193 -9.697455 0 1 0 
2.685489 -2.625193 -4.033029 0 1 0 
-0.348875 -2.625193 -4.033029 0 1 0 
-3.314511 -2.625193 -9.697455 0 1 0 
-3.314511 -2.625193 -4.033029 0 1 0 
-9.387862 -2.625193 -4.033029 0 1 0 
-12.38602 -2.625193 -9.697455 0 1 0 
-12.38602 -2.625193 -4.033029 0 1 0 
-6.236389 -2.625193 -9.697455 0 1 0 
-6.236389 -2.625193 -4.033029 0 1 0 
8.067706 -2.625193 -4.033029 0 1 0 
5.26817 -2.625193 -9.697455 0 1 0 
-0.348875 -2.625193 -9.697455 0 1 0 
-9.387862 -2.625193 -9.697455 0 1 0 
10.94816 -2.625193 -4.033029 0 1 0 
8.067706 -2.625193 -9.697455 0 1 0 
-9.387862 -2.625193 -9.697455 0 0.610855 -0.791742 
-12.38602 -6.369962 -12.58667 0 0.610855 -0.791742 
-12.38602 -2.625193 -9.697455 0 0.610855 -0.791742 
-3.314511 -2.625193 -9.697455 0 0.610855 -0.791742 
-6.236389 -6.369962 -12.58667 0 0.610855 -0.791742 
-6.236389 -2.625193 -9.697455 0 0.610855 -0.791742 
8.067706 -2.625193 -9.697455 0 0.610855 -0.791742 
5.26817 -6.369962 -12.58667 0 0.610855 -0.791742 
5.26817 -2.625193 -9.697455 0 0.610855 -0.791742 
2.685489 -2.625193 -9.697455 0 0.610855 -0.791742 
-0.348875 -6.369962 -12.58667 0 0.610855 -0.791742 
-0.348875 -2.625193 -9.697455 0 0.610855 -0.791742 
-9.387862 -6.369962 -12.58667 0 0.610855 -0.791742 
10.94816 -2.625193 -9.697455 0 0.610855 -0.791742 
8.067706 -6.369962 -12.58667 0 0.610855 -0.791742 
2.685489 -6.369962 -12.58667 0 0.610855 -0.791742 
-3.314511 -6.369962 -12.58667 0 0.610855 -0.791742 
1.828334 -6.369964 -17.69954 2e-06 1 1e-06 
1.029924 -6.36996 -21.60946 2e-06 1 1e-06 
-0.348875 -6.369962 -12.58667 2e-06 1 1e-06 
-6.236389 -6.369962 -12.58667 -0 1 0 
-9.387862 -6.369962 -24.42929 -0 1 0 
-9.387862 -6.369962 -12.58667 -0 1 0 
10.94816 -6.369962 -12.58667 -0 1 0 
10.94816 -6.369962 -24.42929 -0 1 0 
9.378458 -6.369962 -22.42791 -0 1 0 
2.685489 -6.369962 -12.58667 -0 1 -0 
5.26817 -6.369961 -17.37503 -0 1 -0 
2.685489 -6.369962 -17.61911 -0 1 -0 
-0.348875 -6.369962 -12.58667 -0 1 0 
-3.314511 -6.369962 -24.42929 -0 1 0 
-3.314511 -6.369962 -12.58667 -0 1 0 
-12.38602 -6.369962 -24.42929 -0 1 0 
-12.38602 -6.369962 -12.58667 -0 1 0 
-6.236389 -6.369962 -24.42929 -0 1 0 
8.067706 -6.369962 -12.58667 0 1 2e-06 
7.267584 -6.369955 -17.18602 0 1 2e-06 
5.26817 -6.369962 -12.58667 0 1 2e-06 
-6.236389 -6.369962 -24.42929 -0 0 1 
-9.387862 -0.885798 -24.42929 -0 0 1 
-9.387862 -6.369962 -24.42929 -0 0 1 
8.067706 -6.369961 -33.47834 0 1 0 
8.067706 -6.369962 -24.42929 0 1 0 
3.903181 -6.369957 -26.1078 0 1 -1e-06 
5.26817 -6.369961 -33.47834 0 1 -1e-06 
2.685489 -6.369961 -33.47834 0 1 -1e-06 
-0.348875 -6.369962 -24.42929 0 1 0 
-3.314511 -6.369961 -33.47834 0 1 0 
-12.38602 -6.369961 -33.47834 0 1 0 
-6.236389 -6.369961 -33.47834 0 1 0 
8.067706 -6.369963 -24.19009 -0.802291 0 0.596933 
7.889738 -11.30549 -24.42928 -0.802291 0 0.596933 
8.067706 -11.30549 -24.19009 -0.802291 0 0.596933 
2.685489 -6.369962 -24.42929 0 1 0 
-0.348875 -6.369961 -33.47834 0 1 0 
-3.314511 -6.369962 -42.03536 0 1 -0 
-9.387862 -6.369961 -33.47834 0 1 -0 
-12.38602 -6.369962 -42.03536 0 1 -0 
-6.236389 -6.369962 -42.03536 0 1 -0 
5.26817 -6.369962 -42.03536 0 1 -0 
5.26817 -6.369961 -33.47834 0 1 -0 
2.685489 -6.369961 -33.47834 0 1 -0 
-0.348875 -6.369962 -42.03536 0 1 -0 
-9.387862 -6.369962 -42.03536 0 1 -0 
10.94816 -6.369961 -33.47834 0 1 -0 
8.067706 -6.369962 -42.03536 0 1 -0 
2.685489 -6.369962 -42.03536 0 1 -0 
-3.314511 -6.369962 -42.03536 0 0.960986 0.276597 
-6.236389 -3.929846 -50.51311 0 0.960986 0.276597 
-6.236389 -6.369962 -42.03536 0 0.960986 0.276597 
8.067706 -6.369962 -42.03536 0 0.960986 0.276597 
5.26817 -3.929846 -50.51311 0 0.960986 0.276597 
5.26817 -6.369962 -42.03536 0 0.960986 0.276597 
2.685489 -6.369962 -42.03536 0 0.960986 0.276597 
-0.348875 -3.929846 -50.51311 0 0.960986 0.276597 
-0.348875 -6.369962 -42.03536 0 0.960986 0.276597 
-9.387862 -3.929846 -50.51311 0 0.960986 0.276597 
-9.387862 -6.369962 -42.03536 0 0.960986 0.276597 
10.94816 -6.369962 -42.03536 0 0.960986 0.276597 
8.067706 -3.929846 -50.51311 0 0.960986 0.276597 
5.26817 -6.369962 -42.03536 1 0 0 
5.26817 2.370813 -47.75115 1 0 0 
5.26817 -0.069302 -39.2734 1 0 0 
-3.314511 -3.929846 -50.51311 0 0.960986 0.276597 
-12.38602 -3.929846 -50.51311 0 0.960986 0.276597 
-12.38602 -6.369962 -42.03536 0 0.960986 0.276597 
-6.236389 -3.929846 -50.51311 0 0.908808 0.417215 
-9.387862 -0.420166 -58.15815 0 0.908808 0.417215 
-9.387862 -3.929846 -50.51311 0 0.908808 0.417215 
10.94816 -3.929846 -50.51311 0 0.908808 0.417215 
8.067706 -0.420166 -58.15815 0 0.908808 0.417215 
8.067706 -3.929846 -50.51311 0 0.908808 0.417215 
5.26817 -3.929846 -50.51311 0 0.908808 0.417215 
2.685489 -0.420166 -58.15815 0 0.908808 0.417215 
2.685489 -3.929846 -50.51311 0 0.908808 0.417215 
-0.348875 -3.929846 -50.51311 0 0.908808 0.417215 
-3.314511 -0.420166 -58.15815 0 0.908808 0.417215 
-3.314511 -3.929846 -50.51311 0 0.908808 0.417215 
-12.38602 -0.420166 -58.15815 0 0.908808 0.417215 
-12.38602 -3.929846 -50.51311 0 0.908808 0.417215 
-6.236389 -0.420166 -58.15815 0 0.908808 0.417215 
5.26817 -0.420166 -58.15815 0 0.908808 0.417215 
-0.348875 -0.420166 -58.15815 0 0.908808 0.417215 
10.94816 -0.420166 -58.15815 0 1 -0 
8.067706 -0.420167 -65.80564 0 1 -0 
8.067706 -0.420166 -58.15815 0 1 -0 
5.26817 -0.420166 -58.15815 0 1 -0 
2.685489 -0.420167 -65.80564 0 1 -0 
2.685489 -0.420166 -58.15815 0 1 -0 
-0.348875 -0.420166 -58.15815 0 1 -0 
-3.314511 -0.420167 -65.80564 0 1 -0 
-3.314511 -0.420166 -58.15815 0 1 -0 
-9.387862 -0.420166 -58.15815 0 1 -0 
-12.38602 -0.420167 -65.80564 0 1 -0 
-12.38602 -0.420166 -58.15815 0 1 -0 
-6.236389 -0.420167 -65.80564 0 1 -0 
-6.236389 -0.420166 -58.15815 0 1 -0 
5.26817 -0.420167 -65.80564 0 1 -0 
-0.348875 -0.420167 -65.80564 0 1 -0 
-9.387862 -0.420167 -65.80564 0 1 -0 
-12.38602 -0.420167 -72.88182 0 1 -0 
-6.236389 -0.420167 -72.88182 0 1 -0 
5.26817 -0.420167 -72.88182 0 1 -0 
-0.348875 -0.420167 -72.88182 0 1 -0 
-9.387862 -0.420167 -72.88182 0 1 -0 
10.94816 -0.420167 -65.80564 0 1 -0 
8.067706 -0.420167 -72.88182 0 1 -0 
2.685489 -0.420167 -72.88182 0 1 -0 
-3.314511 -0.420167 -72.88182 0 1 -0 
5.26817 -0.420167 -81.60491 0 1 -0 
-0.348875 -0.420167 -81.60491 0 1 -0 
-9.387862 -0.420167 -81.60491 0 1 -0 
10.94816 -0.420167 -72.88182 0 1 -0 
8.067706 -0.420167 -81.60491 0 1 -0 
2.685489 -0.420167 -81.60491 0 1 -0 
-3.314511 -0.420167 -81.60491 0 1 -0 
-12.38602 -0.420167 -81.60491 0 1 -0 
-6.236389 -0.420167 -81.60491 0 1 -0 
-9.387862 -0.420167 -88.6239 0 1 -0 
10.94816 -0.420167 -81.60491 0 1 -0 
8.067706 -0.420167 -88.6239 0 1 -0 
2.685489 -0.420167 -88.6239 0 1 -0 
-3.314511 -0.420167 -88.6239 0 1 -0 
-12.38602 -0.420167 -88.6239 0 1 -0 
-6.236389 -0.420167 -88.6239 0 1 -0 
5.26817 -0.420167 -88.6239 0 1 -0 
-0.348875 -0.420167 -88.6239 0 1 -0 
-3.314511 5.168642 11.73333 0 1 0 
-6.236389 5.168643 5.331419 0 1 0 
-6.236389 5.168642 11.73333 0 1 0 
-6.236389 0.607994 11.73333 -1 0 0 
-6.236389 5.168643 5.331419 -1 0 0 
-6.236389 0.607995 5.33142 -1 0 0 
-3.314511 0.607995 5.33142 1 -0 0 
-3.314511 5.168642 11.73333 1 -0 0 
-3.314511 0.607994 11.73333 1 -0 0 
-6.236389 0.607995 5.33142 0 -0 -1 
-3.314511 5.168643 5.331419 0 -0 -1 
-3.314511 0.607995 5.33142 0 -0 -1 
5.26817 5.025999 11.73333 -0 1 0 
2.685489 5.025999 5.331422 -0 1 0 
2.685489 5.025999 11.73333 -0 1 0 
2.685489 0.607994 11.73333 -1 0 0 
2.685489 5.025999 5.331422 -1 0 0 
2.685489 0.607995 5.33142 -1 0 0 
2.685489 0.607995 5.33142 0 0 -1 
5.26817 5.025999 5.331422 0 0 -1 
5.26817 0.607995 5.33142 0 0 -1 
5.26817 0.607994 11.73333 0 -0 1 
2.685489 5.025999 11.73333 0 -0 1 
2.685489 0.607994 11.73333 0 -0 1 
-6.236389 -0.885798 -24.42929 0 1 0 
-9.387862 -0.885798 -33.47834 0 1 0 
-9.387862 -0.885798 -24.42929 0 1 0 
-6.236389 -6.369961 -33.47834 1 -0 0 
-6.236389 -0.885798 -24.42929 1 -0 0 
-6.236389 -6.369962 -24.42929 1 -0 0 
-9.387862 -6.369961 -33.47834 -1 -0 0 
-9.387862 -0.885798 -24.42929 -1 -0 0 
-9.387862 -0.885798 -33.47834 -1 -0 0 
-9.387862 -6.369961 -33.47834 -0 0 -1 
-6.236389 -0.885798 -33.47834 -0 0 -1 
-6.236389 -6.369961 -33.47834 -0 0 -1 
5.26817 -0.069302 -39.2734 0 0.960986 0.276597 
2.685489 2.370813 -47.75115 0 0.960986 0.276597 
2.685489 -0.069302 -39.2734 0 0.960986 0.276597 
2.685489 -3.929846 -50.51311 0 0.40148 -0.915868 
5.26817 2.370813 -47.75115 0 0.40148 -0.915868 
5.26817 -3.929846 -50.51311 0 0.40148 -0.915868 
2.685489 -6.369962 -42.03536 -1 0 0 
2.685489 2.370813 -47.75115 -1 0 0 
2.685489 -3.929846 -50.51311 -1 0 0 
5.26817 -6.369962 -42.03536 0 -0.40148 0.915868 
2.685489 -0.069302 -39.2734 0 -0.40148 0.915868 
2.685489 -6.369962 -42.03536 0 -0.40148 0.915868 
5.26817 -6.369961 -17.37503 0.094087 0 -0.995564 
2.685489 -11.30549 -17.61911 0.094087 0 -0.995564 
2.685489 -6.369962 -17.61911 0.094087 0 -0.995564 
9.378458 -6.369962 -22.42791 -0.802373 0 0.596823 
8.067706 -11.30549 -24.19009 -0.802373 0 0.596823 
9.378458 -11.30549 -22.4279 -0.802373 0 0.596823 
2.685489 -6.369963 -24.20142 -0 1 4e-06 
2.831028 -6.369962 -24.42929 -0 1 4e-06 
2.685489 -6.369962 -24.42929 -0 1 4e-06 
1.029924 -6.36996 -21.60946 0.842757 0 0.538294 
2.685489 -11.30549 -24.20142 0.842757 0 0.538294 
2.685489 -6.369963 -24.20142 0.842757 0 0.538294 
8.067706 -6.369962 -19.17258 -0.927627 -0 -0.373508 
9.378458 -11.30549 -22.4279 -0.927627 -0 -0.373508 
8.067706 -11.30549 -19.17258 -0.927627 -0 -0.373508 
8.067706 -6.369962 -19.17258 -0.927589 -0 -0.373602 
7.267584 -11.30548 -17.18602 -0.927589 -0 -0.373602 
7.267584 -6.369955 -17.18602 -0.927589 -0 -0.373602 
7.889738 -6.369962 -24.42929 0 1 4e-06 
8.067706 -6.369963 -24.19009 0 1 4e-06 
8.067706 -6.369962 -24.42929 0 1 4e-06 
6.715854 -6.369961 -26.00624 0 1 -0 
2.685489 -6.369963 -24.20142 0.842766 0 0.53828 
2.831028 -11.30549 -24.42928 0.842766 0 0.53828 
2.831028 -6.369962 -24.42929 0.842766 0 0.53828 
5.26817 -6.369961 -17.37503 0.094113 0 -0.995562 
7.267584 -11.30548 -17.18602 0.094113 0 -0.995562 
5.26817 -11.30549 -17.37503 0.094113 0 -0.995562 
5.26817 -6.369963 -26.0589 -0.035796 0 0.999359 
3.903181 -11.30549 -26.1078 -0.035796 0 0.999359 
5.26817 -11.30549 -26.0589 -0.035796 0 0.999359 
5.26817 -6.369963 -26.0589 -0.036358 1e-06 0.999339 
6.715854 -11.30549 -26.00623 -0.036358 1e-06 0.999339 
6.715854 -6.369961 -26.00624 -0.036358 1e-06 0.999339 
2.831028 -6.369962 -24.42929 0.842749 0 0.538306 
3.903181 -11.30549 -26.1078 0.842749 0 0.538306 
3.903181 -6.369957 -26.1078 0.842749 0 0.538306 
7.889738 -6.369962 -24.42929 -0.80215 0 0.597122 
6.715854 -11.30549 -26.00623 -0.80215 0 0.597122 
7.889738 -11.30549 -24.42928 -0.80215 0 0.597122 
1.828334 -6.369964 -17.69954 0.093422 0 -0.995627 
2.685489 -11.30549 -17.61911 0.093422 0 -0.995627 
1.828334 -11.30549 -17.69954 0.093422 0 -0.995627 
1.828334 -6.369964 -17.69954 0.979781 -0 -0.200072 
1.029924 -11.30549 -21.60946 0.979781 -0 -0.200072 
1.029924 -6.36996 -21.60946 0.979781 -0 -0.200072 
10.94816 3.130779 37.68605 0 0.999999 0.001251 
-12.38602 3.138283 31.68606 -0 0.999999 0.001251 
10.94816 3.138283 21.93448 -0 1 0 
-12.38602 3.130779 43.563 0 1 -0 
-3.314511 0.607994 17.06958 0 0.887177 -0.46143 
-6.236389 0.607994 17.06958 0 0.887176 -0.46143 
10.94816 0.607994 17.06958 0 0.887176 -0.46143 
-3.314511 5.168642 11.73333 0 -0 1 
5.26817 0.607995 5.33142 1 0 0 
10.94816 0.607995 -0.129701 0 1 0 
10.94816 -2.625193 -4.033029 0 0.770118 -0.637901 
10.94816 -2.625193 -9.697455 -0 1 0 
10.94816 -6.369962 -12.58667 0 0.610855 -0.791742 
-0.348875 -6.369962 -24.42929 -1e-06 1 0 
-0.348875 -6.369962 -12.58667 -1e-06 1 0 
1.029924 -6.36996 -21.60946 -1e-06 1 0 
2.685489 -6.369962 -12.58667 -2e-06 1 -0 
2.685489 -6.369962 -17.61911 -2e-06 1 -0 
1.828334 -6.369964 -17.69954 -2e-06 1 -0 
1.029924 -6.36996 -21.60946 0 1 -1e-06 
2.685489 -6.369963 -24.20142 0 1 -1e-06 
-0.348875 -6.369962 -24.42929 0 1 -1e-06 
1.828334 -6.369964 -17.69954 0 1 -0 
-0.348875 -6.369962 -24.42929 -0 1 4e-06 
8.067706 -6.369962 -19.17258 0 1 0 
8.067706 -6.369962 -12.58667 0 1 0 
10.94816 -6.369962 -24.42929 -0 1 4e-06 
8.067706 -6.369963 -24.19009 -0 1 -0 
5.26817 -6.369962 -12.58667 0 1 0 
5.26817 -6.369961 -17.37503 -3e-06 1 0 
5.26817 -6.369962 -12.58667 -3e-06 1 0 
7.267584 -6.369955 -17.18602 -3e-06 1 0 
8.067706 -6.369962 -12.58667 9e-06 1 -0 
8.067706 -6.369962 -19.17258 9e-06 1 -0 
7.267584 -6.369955 -17.18602 9e-06 1 -0 
-6.236389 -0.885798 -24.42929 -0 0 1 
2.685489 -6.369961 -33.47834 -4e-06 1 0 
2.685489 -6.369962 -24.42929 -4e-06 1 0 
3.903181 -6.369957 -26.1078 -4e-06 1 0 
3.903181 -6.369957 -26.1078 4e-06 1 0 
5.26817 -6.369963 -26.0589 4e-06 1 0 
5.26817 -6.369961 -33.47834 4e-06 1 0 
2.685489 -6.369962 -24.42929 0 1 3e-06 
2.831028 -6.369962 -24.42929 0 1 3e-06 
3.903181 -6.369957 -26.1078 0 1 3e-06 
8.067706 -6.369963 -24.19009 -0.802293 0 0.59693 
7.889738 -6.369962 -24.42929 -0.802293 0 0.59693 
7.889738 -11.30549 -24.42928 -0.802293 0 0.59693 
10.94816 -6.369962 -42.03536 0 1 -0 
2.685489 -3.929846 -50.51311 -0 0.960986 0.276597 
10.94816 -3.929846 -50.51311 -0 0.960986 0.276597 
5.26817 -3.929846 -50.51311 1 0 0 
10.94816 -0.420166 -58.15815 -0 0.908808 0.417215 
10.94816 -0.420167 -88.6239 0 1 -0 
-3.314511 5.168643 5.331419 -0 1 0 
-6.236389 5.168642 11.73333 -1 -0 0 
-3.314511 5.168643 5.331419 1 0 0 
-6.236389 5.168643 5.331419 -0 -0 -1 
5.26817 5.025999 5.331422 0 1 0 
2.685489 5.025999 11.73333 -1 -0 0 
2.685489 5.025999 5.331422 0 0 -1 
5.26817 5.025999 11.73333 0 -0 1 
-6.236389 -0.885798 -33.47834 -0 1 0 
-6.236389 -0.885798 -33.47834 1 0 0 
-9.387862 -6.369962 -24.42929 -1 -0 -0 
-9.387862 -0.885798 -33.47834 -0 -0 -1 
5.26817 2.370813 -47.75115 -0 0.960986 0.276597 
2.685489 2.370813 -47.75115 0 0.40148 -0.915868 
2.685489 -0.069302 -39.2734 -1 -0 0 
5.26817 -0.069302 -39.2734 0 -0.40148 0.915868 
5.26817 -11.30549 -17.37503 0.094087 0 -0.995564 
8.067706 -6.369963 -24.19009 -0.802373 0 0.596823 
1.029924 -11.30549 -21.60946 0.842757 0 0.538294 
9.378458 -6.369962 -22.42791 -0.927627 -0 -0.373508 
8.067706 -11.30549 -19.17258 -0.927589 -0 -0.373602 
5.26817 -6.369961 -33.47834 -1e-06 1 0 
5.26817 -6.369963 -26.0589 -1e-06 1 0 
6.715854 -6.369961 -26.00624 -1e-06 1 0 
6.715854 -6.369961 -26.00624 0 1 1e-06 
7.889738 -6.369962 -24.42929 0 1 1e-06 
8.067706 -6.369962 -24.42929 0 1 1e-06 
8.067706 -6.369962 -24.42929 1e-06 1 0 
8.067706 -6.369961 -33.47834 1e-06 1 0 
6.715854 -6.369961 -26.00624 1e-06 1 0 
2.685489 -6.369963 -24.20142 0.842764 0 0.538283 
2.685489 -11.30549 -24.20142 0.842764 0 0.538283 
2.831028 -11.30549 -24.42928 0.842764 0 0.538283 
7.267584 -6.369955 -17.18602 0.094113 0 -0.995562 
5.26817 -6.369963 -26.0589 -0.035799 1e-06 0.999359 
3.903181 -6.369957 -26.1078 -0.035799 1e-06 0.999359 
3.903181 -11.30549 -26.1078 -0.035799 1e-06 0.999359 
5.26817 -6.369963 -26.0589 -0.036361 0 0.999339 
5.26817 -11.30549 -26.0589 -0.036361 0 0.999339 
6.715854 -11.30549 -26.00623 -0.036361 0 0.999339 
2.831028 -11.30549 -24.42928 0.842749 0 0.538306 
6.715854 -6.369961 -26.00624 -0.80215 0 0.597122 
2.685489 -6.369962 -17.61911 0.093422 0 -0.995627 
1.828334 -6.369964 -17.69954 0.979781 0 -0.200073 
1.828334 -11.30549 -17.69954 0.979781 0 -0.200073 
1.029924 -11.30549 -21.60946 0.979781 0 -0.200073 
-15.52521 -6.369962 -42.03536 0 0.960986 0.276597 
-15.52521 3.138283 21.93448 0 0.887176 -0.46143 
-15.52521 0.607994 17.06958 0 1 0 
-15.52521 -6.369962 -12.58667 0 1 0 
-15.52521 3.138283 31.68606 0 1 0 
-15.52521 -0.420167 -72.88182 0 1 -0 
-15.52521 0.607995 -0.129701 0 0.770118 -0.637901 
-15.52521 -3.929846 -50.51311 0 0.908808 0.417215 
-15.52521 -0.420166 -58.15815 0 1 -0 
-15.52521 -6.369962 -24.42929 0 1 0 
-15.52521 -0.420167 -81.60491 0 1 -0 
-15.52521 0.607994 11.73333 0 1 0 
-15.52521 3.130779 37.68605 0 0.999999 0.001251 
-15.52521 3.138283 26.77331 0 1 0 
-15.52521 -2.625193 -9.697455 0 0.610855 -0.791742 
-15.52521 3.130779 43.563 0 1 -0 
-15.52521 -0.420167 -65.80564 0 1 -0 
-15.52521 -6.369961 -33.47834 0 1 -0 
-15.52521 0.607995 5.33142 0 1 0 
-15.52521 -2.625193 -4.033029 0 1 0 
-18.60222 0.607994 11.73333 0 1 0 
-15.52521 -3.929846 -50.51311 0 0.960986 0.276597 
-18.60222 -6.369962 -42.03536 0 0.960986 0.276597 
-15.52521 0.607995 -0.129701 0 1 0 
-18.60222 0.607995 5.33142 0 1 0 
-15.52521 3.138283 31.68606 0 0.999999 0.001251 
-18.60222 3.130779 37.68605 0 0.999999 0.001251 
-15.52521 -0.420166 -58.15815 0 0.908808 0.417215 
-18.60222 -3.929846 -50.51311 0 0.908808 0.417215 
-15.52521 -2.625193 -4.033029 0 0.770118 -0.637901 
-18.60222 0.607995 -0.129701 0 0.770118 -0.637901 
-18.60222 3.138283 31.68606 0 1 0 
-18.60222 -0.420166 -58.15815 0 1 -0 
-15.52521 -2.625193 -9.697455 0 1 0 
-18.60222 -2.625193 -4.033029 0 1 0 
-15.52521 3.138283 21.93448 0 1 0 
-18.60222 3.138283 26.77331 0 1 0 
-18.60222 -0.420167 -65.80564 0 1 -0 
-15.52521 -6.369962 -12.58667 0 0.610855 -0.791742 
-18.60222 -2.625193 -9.697455 0 0.610855 -0.791742 
-15.52521 3.130779 37.68605 0 1 -0 
-18.60222 3.130779 43.563 0 1 -0 
-18.60222 -0.420167 -72.88182 0 1 -0 
-18.60222 -6.369962 -12.58667 0 1 0 
-15.52521 0.607994 17.06958 0 0.887176 -0.46143 
-18.60222 3.138283 21.93448 0 0.887176 -0.46143 
-15.52521 -0.420167 -88.6239 0 1 -0 
-18.60222 -0.420167 -81.60491 0 1 -0 
-18.60222 -6.369962 -24.42929 0 1 0 
-18.60222 0.607994 17.06958 0 1 0 
-15.52521 -6.369962 -42.03536 0 1 -0 
-18.60222 -6.369961 -33.47834 0 1 -0 
-18.60222 3.138283 21.93448 0 1 0 
-21.90425 3.138283 26.77331 0 1 0 
-21.90425 -0.420167 -65.80564 0 1 -0 
-18.60222 -6.369962 -12.58667 0 0.610855 -0.791742 
-21.90425 -2.625193 -9.697455 0 0.610855 -0.791742 
-18.60222 3.130779 37.68605 0 1 -0 
-21.90425 3.130779 43.563 0 1 -0 
-21.90425 -0.420167 -72.88182 0 1 -0 
-21.90425 -6.369962 -12.58667 0 1 0 
-18.60222 0.607994 17.06958 0 0.887176 -0.46143 
-21.90425 3.138283 21.93448 0 0.887176 -0.46143 
-18.60222 -0.420167 -88.6239 0 1 -0 
-21.90425 -0.420167 -81.60491 0 1 -0 
-21.90425 -6.369962 -24.42929 0 1 0 
-21.90425 0.607994 17.06958 0 1 0 
-18.60222 -6.369962 -42.03536 0 1 -0 
-21.90425 -6.369961 -33.47834 0 1 -0 
-21.90425 0.607994 11.73333 0 1 0 
-18.60222 -3.929846 -50.51311 0 0.960986 0.276597 
-21.90425 -6.369962 -42.03536 0 0.960986 0.276597 
-18.60222 0.607995 -0.129701 0 1 0 
-21.90425 0.607995 5.33142 0 1 0 
-18.60222 3.138283 31.68606 0 0.999999 0.001251 
-21.90425 3.130779 37.68605 0 0.999999 0.001251 
-18.60222 -0.420166 -58.15815 0 0.908808 0.417215 
-21.90425 -3.929846 -50.51311 0 0.908808 0.417215 
-18.60222 -2.625193 -4.033029 0 0.770118 -0.637901 
-21.90425 0.607995 -0.129701 0 0.770118 -0.637901 
-21.90425 3.138283 31.68606 0 1 0 
-21.90425 -0.420166 -58.15815 0 1 -0 
-18.60222 -2.625193 -9.697455 0 1 0 
-21.90425 -2.625193 -4.033029 0 1 0 
-21.90425 -6.369962 -42.03536 0 1 -0 
-25.23779 -6.369961 -33.47834 0 1 -0 
-25.23779 0.607994 11.73333 0 1 0 
-21.90425 -3.929846 -50.51311 0 0.960986 0.276597 
-25.23779 -6.369962 -42.03536 0 0.960986 0.276597 
-21.90425 0.607995 -0.129701 0 1 0 
-25.23779 0.607995 5.33142 0 1 0 
-21.90425 3.138283 31.68606 0 0.999999 0.001251 
-25.23779 3.130779 37.68605 0 0.999999 0.001251 
-21.90425 -0.420166 -58.15815 0 0.908808 0.417215 
-25.23779 -3.929846 -50.51311 0 0.908808 0.417215 
-21.90425 -2.625193 -4.033029 0 0.770118 -0.637901 
-25.23779 0.607995 -0.129701 0 0.770118 -0.637901 
-25.23779 3.138283 31.68606 0 1 0 
-25.23779 -0.420166 -58.15815 0 1 -0 
-21.90425 -2.625193 -9.697455 0 1 0 
-25.23779 -2.625193 -4.033029 0 1 0 
-21.90425 3.138283 21.93448 0 1 0 
-25.23779 3.138283 26.77331 0 1 0 
-25.23779 -0.420167 -65.80564 0 1 -0 
-21.90425 -6.369962 -12.58667 0 0.610855 -0.791742 
-25.23779 -2.625193 -9.697455 0 0.610855 -0.791742 
-21.90425 3.130779 37.68605 0 1 -0 
-25.23779 3.130779 43.563 0 1 -0 
-25.23779 -0.420167 -72.88182 0 1 -0 
-25.23779 -6.369962 -12.58667 0 1 0 
-21.90425 0.607994 17.06958 0 0.887177 -0.46143 
-25.23779 3.138283 21.93448 0 0.887177 -0.46143 
-21.90425 3.138283 21.93448 0 0.887177 -0.46143 
-21.90425 -0.420167 -88.6239 0 1 -0 
-25.23779 -0.420167 -81.60491 0 1 -0 
-25.23779 -6.369962 -24.42929 0 1 0 
-25.23779 0.607994 17.06958 0 1 0 
-25.23779 -2.625193 -9.697455 0 1 0 
-29.01574 -2.625193 -4.033029 0 1 0 
-25.23779 3.138283 21.93448 0 1 0 
-29.01574 3.138283 26.77331 0 1 0 
-29.01574 -0.420167 -65.80564 0 1 -0 
-25.23779 -6.369962 -12.58667 0 0.610855 -0.791742 
-29.01574 -2.625193 -9.697455 0 0.610855 -0.791742 
-25.23779 3.130779 37.68605 0 1 -0 
-29.01574 3.130779 43.563 0 1 -0 
-29.01574 -0.420167 -72.88182 0 1 -0 
-29.01574 -6.369962 -12.58667 0 1 0 
-25.23779 0.607994 17.06958 0 0.887176 -0.46143 
-29.01574 3.138283 21.93448 0 0.887176 -0.46143 
-25.23779 3.138283 21.93448 0 0.887176 -0.46143 
-25.23779 -0.420167 -88.6239 0 1 -0 
-29.01574 -0.420167 -81.60491 0 1 -0 
-29.01574 -6.369962 -24.42929 0 1 0 
-29.01574 0.607994 17.06958 0 1 0 
-25.23779 -6.369962 -42.03536 0 1 -0 
-29.01574 -6.369961 -33.47834 0 1 -0 
-29.01574 0.607994 11.73333 0 1 0 
-25.23779 -3.929846 -50.51311 0 0.960986 0.276597 
-29.01574 -6.369962 -42.03536 0 0.960986 0.276597 
-25.23779 0.607995 -0.129701 0 1 0 
-29.01574 0.607995 5.33142 0 1 0 
-25.23779 3.138283 31.68606 0 0.999999 0.001251 
-29.01574 3.130779 37.68605 0 0.999999 0.001251 
-25.23779 -0.420166 -58.15815 0 0.908808 0.417215 
-29.01574 -3.929846 -50.51311 0 0.908808 0.417215 
-25.23779 -2.625193 -4.033029 0 0.770118 -0.637901 
-29.01574 0.607995 -0.129701 0 0.770118 -0.637901 
-29.01574 3.138283 31.68606 0 1 0 
-29.01574 -0.420166 -58.15815 0 1 -0 
-32.86234 0.607994 17.06958 0 1 0 
-29.01574 -6.369962 -42.03536 0 1 -0 
-32.86234 -6.369961 -33.47834 0 1 -0 
-32.86234 0.607994 11.73333 0 1 0 
-29.01574 -3.929846 -50.51311 0 0.960986 0.276597 
-32.86234 -6.369962 -42.03536 0 0.960986 0.276597 
-29.01574 0.607995 -0.129701 0 1 0 
-32.86234 0.607995 5.33142 0 1 0 
-29.01574 3.138283 31.68606 0 0.999999 0.001251 
-32.86234 3.130779 37.68605 0 0.999999 0.001251 
-29.01574 -0.420166 -58.15815 0 0.908808 0.417215 
-32.86234 -3.929846 -50.51311 0 0.908808 0.417215 
-29.01574 -2.625193 -4.033029 0 0.770118 -0.637901 
-32.86234 0.607995 -0.129701 0 0.770118 -0.637901 
-32.86234 3.138283 31.68606 0 1 0 
-32.86234 -0.420166 -58.15815 0 1 -0 
-29.01574 -2.625193 -9.697455 0 1 0 
-32.86234 -2.625193 -4.033029 0 1 0 
-29.01574 3.138283 21.93448 0 1 0 
-32.86234 3.138283 26.77331 0 1 0 
-32.86234 -0.420167 -65.80564 0 1 -0 
-29.01574 -6.369962 -12.58667 0 0.610855 -0.791742 
-32.86234 -2.625193 -9.697455 0 0.610855 -0.791742 
-29.01574 3.130779 37.68605 0 1 -0 
-32.86234 3.130779 43.563 0 1 -0 
-32.86234 -0.420167 -72.88182 0 1 -0 
-32.86234 -6.369962 -12.58667 0 1 0 
-29.01574 0.607994 17.06958 0 0.887176 -0.46143 
-32.86234 3.138283 21.93448 0 0.887176 -0.46143 
-29.01574 -0.420167 -88.6239 0 1 -0 
-32.86234 -0.420167 -81.60491 0 1 -0 
-32.86234 -6.369962 -24.42929 0 1 0 
-21.90425 0.607994 17.06958 0 0.887176 -0.46143 
-25.23779 0.607994 17.06958 0 0.887177 -0.46143 
-32.86234 -6.369962 -42.03536 0 1 -0 
-32.86234 -3.929846 -50.51311 -0 0.960986 0.276597 
-32.86234 0.607995 -0.129701 -0 1 0 
-32.86234 3.138283 31.68606 -0 0.999999 0.001251 
-32.86234 -0.420166 -58.15815 -0 0.908808 0.417215 
-32.86234 -2.625193 -4.033029 0 0.770118 -0.637901 
-32.86234 -2.625193 -9.697455 -0 1 0 
-32.86234 3.138283 21.93448 -0 1 0 
-32.86234 -6.369962 -12.58667 0 0.610855 -0.791742 
-32.86234 3.130779 37.68605 0 1 -0 
-32.86234 0.607994 17.06958 0 0.887176 -0.46143 
-32.86234 -0.420167 -88.6239 0 1 -0 
3 0 1 2 
3 3 4 1 
3 5 6 4 
3 7 8 6 
3 9 10 8 
3 2 11 0 
3 12 13 11 
3 14 15 13 
3 16 17 18 
3 19 20 21 
3 22 23 24 
3 25 26 27 
3 24 28 29 
3 18 30 25 
3 21 31 22 
3 27 32 19 
3 32 33 20 
3 23 34 28 
3 20 35 31 
3 17 36 30 
3 26 37 32 
3 31 38 23 
3 39 40 17 
3 30 41 26 
3 42 43 44 
3 45 46 47 
3 48 49 50 
3 51 52 53 
3 50 54 55 
3 53 56 45 
3 44 57 51 
3 47 58 48 
3 59 60 61 
3 62 63 64 
3 65 66 67 
3 68 69 70 
3 71 72 62 
3 64 73 65 
3 67 74 75 
3 70 76 77 
3 78 79 80 
3 81 82 83 
3 84 85 86 
3 87 88 89 
3 86 90 91 
3 80 92 81 
3 83 93 84 
3 91 94 87 
3 94 95 88 
3 96 97 98 
3 79 99 92 
3 82 100 93 
3 90 101 94 
3 102 103 79 
3 104 105 106 
3 93 107 85 
3 103 108 99 
3 109 110 100 
3 111 112 101 
3 113 114 103 
3 99 115 109 
3 100 116 107 
3 101 117 95 
3 107 118 111 
3 119 120 121 
3 122 123 124 
3 125 126 127 
3 128 129 130 
3 121 131 132 
3 130 133 119 
3 124 134 125 
3 127 135 128 
3 136 137 138 
3 139 140 141 
3 142 143 144 
3 141 145 146 
3 147 148 136 
3 138 149 139 
3 146 150 142 
3 151 152 147 
3 153 154 155 
3 156 157 158 
3 159 160 161 
3 162 163 164 
3 158 165 153 
3 166 167 159 
3 161 168 162 
3 164 169 156 
3 170 171 172 
3 173 174 175 
3 176 177 178 
3 179 180 181 
3 182 183 184 
3 175 185 186 
3 184 187 173 
3 188 189 190 
3 191 192 193 
3 177 194 195 
3 196 197 198 
3 199 200 183 
3 174 201 185 
3 183 202 187 
3 203 204 205 
3 206 207 199 
3 207 208 200 
3 209 210 201 
3 200 211 202 
3 194 212 213 
3 214 215 207 
3 202 216 209 
3 217 218 194 
3 213 219 214 
3 220 221 222 
3 223 224 225 
3 226 227 228 
3 222 229 230 
3 231 232 223 
3 233 234 235 
3 228 236 220 
3 230 237 238 
3 239 240 241 
3 242 243 244 
3 245 246 247 
3 248 249 250 
3 241 251 252 
3 250 253 239 
3 244 254 245 
3 247 255 248 
3 256 257 258 
3 259 260 261 
3 262 263 264 
3 265 266 267 
3 264 268 269 
3 258 270 259 
3 261 271 262 
3 269 272 265 
3 272 273 266 
3 263 274 268 
3 257 275 270 
3 260 276 271 
3 268 277 272 
3 278 279 257 
3 270 280 260 
3 271 281 263 
3 279 282 275 
3 280 283 276 
3 274 284 277 
3 285 286 279 
3 275 287 280 
3 276 288 281 
3 277 289 273 
3 281 290 274 
3 290 291 284 
3 292 293 286 
3 282 294 287 
3 283 295 288 
3 284 296 289 
3 288 297 290 
3 286 298 282 
3 287 299 283 
3 300 301 302 
3 303 304 305 
3 306 307 308 
3 309 310 311 
3 312 313 314 
3 315 316 317 
3 318 319 320 
3 321 322 323 
3 324 325 326 
3 327 328 329 
3 330 331 332 
3 333 334 335 
3 336 337 338 
3 339 340 341 
3 342 343 344 
3 345 346 347 
3 348 349 350 
3 0 3 1 
3 351 352 353 
3 354 355 356 
3 357 358 359 
3 360 361 362 
3 363 364 365 
3 366 367 368 
3 369 194 213 
3 370 371 372 
3 373 374 375 
3 376 377 378 
3 379 380 381 
3 382 383 384 
3 385 386 387 
3 388 389 390 
3 391 392 393 
3 3 5 4 
3 5 7 6 
3 7 9 8 
3 9 394 10 
3 2 12 11 
3 12 14 13 
3 14 395 15 
3 16 39 17 
3 19 32 20 
3 22 31 23 
3 25 30 26 
3 24 23 28 
3 18 17 30 
3 21 20 31 
3 27 26 32 
3 32 37 33 
3 23 38 34 
3 20 33 35 
3 17 40 36 
3 26 41 37 
3 31 35 38 
3 39 396 40 
3 30 36 41 
3 42 397 43 
3 45 56 46 
3 48 58 49 
3 51 57 52 
3 50 49 54 
3 53 52 56 
3 44 43 57 
3 47 46 58 
3 59 398 60 
3 62 72 63 
3 65 73 66 
3 68 399 69 
3 71 400 72 
3 64 63 73 
3 67 66 74 
3 70 69 76 
3 78 102 79 
3 81 92 82 
3 84 93 85 
3 87 94 88 
3 86 85 90 
3 80 79 92 
3 83 82 93 
3 91 90 94 
3 94 101 95 
3 96 401 97 
3 79 103 99 
3 82 109 100 
3 90 111 101 
3 102 113 103 
3 104 402 105 
3 93 100 107 
3 103 114 108 
3 109 115 110 
3 111 118 112 
3 113 403 114 
3 99 108 115 
3 100 110 116 
3 101 112 117 
3 107 116 118 
3 119 133 120 
3 122 404 123 
3 125 134 126 
3 128 135 129 
3 121 120 131 
3 130 129 133 
3 124 123 134 
3 127 126 135 
3 136 148 137 
3 139 149 140 
3 142 150 143 
3 141 140 145 
3 147 152 148 
3 138 137 149 
3 146 145 150 
3 151 405 152 
3 153 165 154 
3 156 169 157 
3 159 167 160 
3 162 168 163 
3 158 157 165 
3 166 406 167 
3 161 160 168 
3 164 163 169 
3 407 408 409 
3 410 411 412 
3 413 414 415 
3 179 416 182 
3 354 356 417 
3 173 187 174 
3 418 419 176 
3 420 368 367 
3 178 418 176 
3 177 421 178 
3 179 422 180 
3 182 199 183 
3 175 174 185 
3 184 183 187 
3 423 424 425 
3 426 427 428 
3 191 429 192 
3 177 217 194 
3 430 431 432 
3 433 434 435 
3 436 437 438 
3 199 207 200 
3 174 209 201 
3 183 200 202 
3 439 440 441 
3 206 214 207 
3 207 215 208 
3 209 216 210 
3 200 208 211 
3 194 218 212 
3 214 219 215 
3 202 211 216 
3 217 442 218 
3 213 212 219 
3 220 236 221 
3 223 232 224 
3 226 443 227 
3 222 221 229 
3 231 444 232 
3 233 445 234 
3 228 227 236 
3 230 229 237 
3 239 253 240 
3 242 446 243 
3 245 254 246 
3 248 255 249 
3 241 240 251 
3 250 249 253 
3 244 243 254 
3 247 246 255 
3 256 278 257 
3 259 270 260 
3 262 271 263 
3 265 272 266 
3 264 263 268 
3 258 257 270 
3 261 260 271 
3 269 268 272 
3 272 277 273 
3 263 281 274 
3 257 279 275 
3 260 280 276 
3 268 274 277 
3 278 285 279 
3 270 275 280 
3 271 276 281 
3 279 286 282 
3 280 287 283 
3 274 290 284 
3 285 292 286 
3 275 282 287 
3 276 283 288 
3 277 284 289 
3 281 288 290 
3 290 297 291 
3 292 447 293 
3 282 298 294 
3 283 299 295 
3 284 291 296 
3 288 295 297 
3 286 293 298 
3 287 294 299 
3 300 448 301 
3 303 449 304 
3 306 450 307 
3 309 451 310 
3 312 452 313 
3 315 453 316 
3 318 454 319 
3 321 455 322 
3 324 456 325 
3 327 457 328 
3 330 458 331 
3 333 459 334 
3 336 460 337 
3 339 461 340 
3 342 462 343 
3 345 463 346 
3 348 464 349 
3 351 465 352 
3 357 466 358 
3 360 467 361 
3 363 468 364 
3 469 470 471 
3 472 473 474 
3 475 476 477 
3 478 479 480 
3 373 481 374 
3 482 483 484 
3 485 486 487 
3 382 488 383 
3 385 489 386 
3 388 490 389 
3 491 492 493 
3 237 494 238 
3 76 495 77 
3 88 496 89 
3 185 497 186 
3 28 498 29 
3 289 499 273 
3 131 500 132 
3 251 501 252 
3 266 502 267 
3 201 503 185 
3 296 504 289 
3 95 505 88 
3 395 506 15 
3 34 507 28 
3 154 508 155 
3 42 509 397 
3 273 510 266 
3 210 511 201 
3 117 512 95 
3 143 513 144 
3 512 514 505 
3 515 516 494 
3 517 518 512 
3 519 520 506 
3 521 522 501 
3 523 524 500 
3 507 525 498 
3 510 526 502 
3 527 528 513 
3 529 530 507 
3 499 531 510 
3 532 533 508 
3 534 535 509 
3 504 536 499 
3 503 537 497 
3 538 539 495 
3 540 541 504 
3 511 542 503 
3 505 543 496 
3 544 545 511 
3 546 547 530 
3 536 548 531 
3 549 550 533 
3 551 552 535 
3 541 553 536 
3 542 554 537 
3 555 556 539 
3 557 558 541 
3 545 559 542 
3 514 560 543 
3 561 562 545 
3 518 563 514 
3 564 565 516 
3 566 567 518 
3 568 569 520 
3 570 571 522 
3 572 573 524 
3 530 574 525 
3 531 575 526 
3 576 577 528 
3 578 579 562 
3 567 580 563 
3 581 582 565 
3 583 584 567 
3 585 586 569 
3 587 588 571 
3 589 590 573 
3 547 591 574 
3 548 592 575 
3 593 594 577 
3 595 596 547 
3 553 597 548 
3 598 599 550 
3 600 601 552 
3 558 602 553 
3 559 603 554 
3 604 605 606 
3 607 608 558 
3 562 609 559 
3 563 610 560 
3 611 612 594 
3 613 614 596 
3 602 615 597 
3 616 617 599 
3 618 619 601 
3 608 620 602 
3 609 621 603 
3 622 623 624 
3 625 626 608 
3 579 627 609 
3 580 628 610 
3 629 630 579 
3 584 631 580 
3 632 633 582 
3 634 635 584 
3 636 637 586 
3 638 639 588 
3 640 641 590 
3 596 642 591 
3 597 643 592 
3 631 644 628 
3 645 646 630 
3 635 647 631 
3 648 649 633 
3 650 651 635 
3 652 653 637 
3 654 655 639 
3 656 657 641 
3 614 658 642 
3 615 659 643 
3 660 661 612 
3 662 663 614 
3 620 664 615 
3 665 666 617 
3 667 668 619 
3 626 669 620 
3 627 670 621 
3 671 672 623 
3 673 674 626 
3 630 675 627 
3 237 515 494 
3 76 538 495 
3 88 505 496 
3 185 503 497 
3 28 507 498 
3 289 504 499 
3 131 523 500 
3 251 521 501 
3 266 510 502 
3 201 511 503 
3 296 540 504 
3 95 512 505 
3 395 519 506 
3 34 529 507 
3 154 532 508 
3 42 534 509 
3 273 499 510 
3 210 544 511 
3 117 517 512 
3 143 527 513 
3 512 518 514 
3 515 564 516 
3 517 566 518 
3 519 568 520 
3 521 570 522 
3 523 572 524 
3 507 530 525 
3 510 531 526 
3 527 576 528 
3 529 546 530 
3 499 536 531 
3 532 549 533 
3 534 551 535 
3 504 541 536 
3 503 542 537 
3 538 555 539 
3 540 557 541 
3 511 545 542 
3 505 514 543 
3 544 561 545 
3 546 595 547 
3 536 553 548 
3 549 598 550 
3 551 600 552 
3 541 558 553 
3 542 559 554 
3 555 676 556 
3 557 607 558 
3 545 562 559 
3 514 563 560 
3 561 578 562 
3 518 567 563 
3 564 581 565 
3 566 583 567 
3 568 585 569 
3 570 587 571 
3 572 589 573 
3 530 547 574 
3 531 548 575 
3 576 593 577 
3 578 629 579 
3 567 584 580 
3 581 632 582 
3 583 634 584 
3 585 636 586 
3 587 638 588 
3 589 640 590 
3 547 596 591 
3 548 597 592 
3 593 611 594 
3 595 613 596 
3 553 602 597 
3 598 616 599 
3 600 618 601 
3 558 608 602 
3 559 609 603 
3 604 677 605 
3 607 625 608 
3 562 579 609 
3 563 580 610 
3 611 660 612 
3 613 662 614 
3 602 620 615 
3 616 665 617 
3 618 667 619 
3 608 626 620 
3 609 627 621 
3 622 671 623 
3 625 673 626 
3 579 630 627 
3 580 631 628 
3 629 645 630 
3 584 635 631 
3 632 648 633 
3 634 650 635 
3 636 652 637 
3 638 654 639 
3 640 656 641 
3 596 614 642 
3 597 615 643 
3 631 647 644 
3 645 678 646 
3 635 651 647 
3 648 679 649 
3 650 680 651 
3 652 681 653 
3 654 682 655 
3 656 683 657 
3 614 663 658 
3 615 664 659 
3 660 684 661 
3 662 685 663 
3 620 669 664 
3 665 686 666 
3 667 687 668 
3 626 674 669 
3 627 675 670 
3 671 688 672 
3 673 689 674 
3 630 646 675 
