ply
format ascii 1.0
comment VCGLIB generated
element vertex 54
property float x
property float y
property float z
property float nx
property float ny
property float nz
element face 48
property list uchar int vertex_indices
end_header
9.176112 3.397345 -113.8029 -0.751778 0.659416 0 
12.82764 7.560325 -119.3404 -0.751778 0.659416 0 
9.176112 3.397345 -119.3404 -0.751778 0.659416 0 
16.99062 3.9088 -113.8029 0.659416 0.751778 0 
21.1536 0.257274 -119.3404 0.659416 0.751778 0 
16.99062 3.9088 -119.3404 0.659416 0.751778 0 
17.50207 -3.905706 -113.8029 0.751778 -0.659416 0 
13.85055 -8.068686 -119.3404 0.751778 -0.659416 0 
17.50207 -3.905706 -119.3404 0.751778 -0.659416 0 
9.687567 -4.417161 -113.8029 -0.659416 -0.751778 0 
5.524587 -0.765635 -119.3404 -0.659416 -0.751778 0 
9.687567 -4.417161 -119.3404 -0.659416 -0.751778 0 
17.50207 -3.905706 -124.8779 0 -0 -1 
9.687567 -4.417161 -124.8779 0 -0 -1 
13.33909 -0.25418 -124.8779 0 -0 -1 
9.176112 3.397345 -113.8029 0 0 1 
9.687567 -4.417161 -113.8029 0 0 1 
13.33909 -0.25418 -113.8029 0 0 1 
13.85055 -8.068686 -113.8029 0 0 1 
17.50207 -3.905706 -113.8029 0 0 1 
16.99062 3.9088 -113.8029 0 0 1 
21.1536 0.257274 -113.8029 0 0 1 
12.82764 7.560325 -113.8029 0 0 1 
5.524587 -0.765635 -124.8779 0 -0 -1 
9.176112 3.397345 -124.8779 0 -0 -1 
16.99062 3.9088 -124.8779 0 -0 -1 
12.82764 7.560325 -124.8779 0 -0 -1 
21.1536 0.257274 -124.8779 0 -0 -1 
5.524587 -0.765635 -124.8779 -0.659416 -0.751778 0 
9.687567 -4.417161 -124.8779 -0.659416 -0.751778 0 
13.85055 -8.068686 -119.3404 -0.659416 -0.751778 0 
13.85055 -8.068686 -124.8779 -0.659416 -0.751778 0 
13.85055 -8.068686 -113.8029 -0.659416 -0.751778 0 
13.85055 -8.068686 -124.8779 0.751778 -0.659416 0 
17.50207 -3.905706 -124.8779 0.751778 -0.659416 0 
21.1536 0.257274 -119.3404 0.751778 -0.659416 0 
21.1536 0.257274 -124.8779 0.751778 -0.659416 0 
21.1536 0.257274 -113.8029 0.751778 -0.659416 0 
21.1536 0.257274 -124.8779 0.659416 0.751778 0 
16.99062 3.9088 -124.8779 0.659416 0.751778 0 
12.82764 7.560325 -119.3404 0.659416 0.751778 0 
12.82764 7.560325 -124.8779 0.659416 0.751778 0 
12.82764 7.560325 -113.8029 0.659416 0.751778 0 
12.82764 7.560325 -124.8779 -0.751778 0.659416 0 
9.176112 3.397345 -124.8779 -0.751778 0.659416 0 
5.524587 -0.765635 -119.3404 -0.751778 0.659416 0 
5.524587 -0.765635 -124.8779 -0.751778 0.659416 0 
5.524587 -0.765635 -113.8029 -0.751778 0.659416 0 
12.82764 7.560325 -113.8029 -0.751778 0.659416 0 
21.1536 0.257274 -113.8029 0.659416 0.751778 -0 
13.85055 -8.068686 -113.8029 0.751778 -0.659416 0 
5.524587 -0.765635 -113.8029 -0.659416 -0.751778 0 
13.85055 -8.068686 -124.8779 0 0 -1 
5.524587 -0.765635 -113.8029 0 -0 1 
3 0 1 2 
3 3 4 5 
3 6 7 8 
3 9 10 11 
3 12 13 14 
3 15 16 17 
3 17 18 19 
3 20 19 21 
3 22 17 20 
3 14 23 24 
3 25 24 26 
3 27 14 25 
3 11 28 29 
3 30 29 31 
3 32 11 30 
3 8 33 34 
3 35 34 36 
3 37 8 35 
3 5 38 39 
3 40 39 41 
3 42 5 40 
3 2 43 44 
3 45 44 46 
3 47 2 45 
3 0 48 1 
3 3 49 4 
3 6 50 7 
3 9 51 10 
3 12 52 13 
3 15 53 16 
3 17 16 18 
3 20 17 19 
3 22 15 17 
3 14 13 23 
3 25 14 24 
3 27 12 14 
3 11 10 28 
3 30 11 29 
3 32 9 11 
3 8 7 33 
3 35 8 34 
3 37 6 8 
3 5 4 38 
3 40 5 39 
3 42 3 5 
3 2 1 43 
3 45 2 44 
3 47 0 2 
